G04 DipTrace 3.3.1.3*
G04 JTAGAdapter.gtl*
%MOMM*%
G04 #@! TF.FileFunction,Copper,L1,Top*
G04 #@! TF.Part,Single*
%AMOUTLINE0*
4,1,20,
0.75,0.0,
0.71329,-0.26266,
0.60676,-0.49962,
0.44084,-0.68766,
0.23176,-0.8084,
0.0,-0.85,
-0.23176,-0.8084,
-0.44084,-0.68766,
-0.60676,-0.49962,
-0.71329,-0.26266,
-0.75,0.0,
-0.71329,0.26266,
-0.60676,0.49962,
-0.44084,0.68766,
-0.23176,0.8084,
0.0,0.85,
0.23176,0.8084,
0.44084,0.68766,
0.60676,0.49962,
0.71329,0.26266,
0.75,0.0,
0*%
G04 #@! TA.AperFunction,Conductor*
%ADD13C,0.5*%
G04 #@! TA.AperFunction,CopperBalancing*
%ADD14C,0.1*%
%ADD15C,0.3*%
%ADD17R,0.74X3.13*%
G04 #@! TA.AperFunction,ComponentPad*
%ADD18R,1.5X1.7*%
%ADD19O,1.5X1.7*%
G04 #@! TA.AperFunction,ViaPad*
%ADD20C,1.0*%
G04 #@! TA.AperFunction,ComponentPad*
%ADD34OUTLINE0*%
%FSLAX35Y35*%
G04*
G71*
G90*
G75*
G01*
G04 Top*
%LPD*%
X1556440Y1376750D2*
D13*
X1810440D1*
X2064440D1*
X2318440D1*
X2572440D1*
X2826440D1*
X3080440D1*
X3334440D1*
X3588440D1*
X2826533Y3027750D2*
X2699533D1*
X2572533D1*
X2445533D1*
X1555627Y2138750D2*
X1809627D1*
X2445533Y3027750D2*
X2143003D1*
X1809627Y2694373D1*
Y2138750D1*
X1556440Y1376750D2*
X1412750D1*
X1365123Y1424377D1*
Y2122873D1*
X1381000Y2138750D1*
X1555627D1*
X2064440Y1630750D2*
Y2137933D1*
X2063627Y2138750D1*
Y2361000D1*
X2357377Y2654750D1*
X2445533D1*
X2826440Y1630750D2*
Y2137933D1*
X2825627Y2138750D1*
Y2653840D1*
X2826533Y2654750D1*
X3334440Y1630750D2*
Y2137933D1*
X3333627Y2138750D1*
X2571627Y2424500D2*
Y2654750D1*
X2572533D1*
X2699533D2*
Y2377783D1*
X2619250Y2297500D1*
X2460500D1*
X2318440Y2155440D1*
Y1630750D1*
X2317627Y2138750D2*
X2318440Y2155440D1*
X3080440Y1630750D2*
Y2137933D1*
X3079623Y2138750D1*
Y2551497D1*
X2976373Y2654750D1*
X2953533D1*
X3588440Y1630750D2*
Y2137933D1*
X3587627Y2138750D1*
X3842440Y1630750D2*
Y2137933D1*
X3841627Y2138750D1*
X2953533Y3027750D2*
X3301877D1*
X3841627Y2488003D1*
Y2138750D1*
D20*
X2571627Y2424500D3*
X1206375Y2964250D3*
X1127000Y1122750D3*
X4190875Y2964250D3*
X4270250Y1122750D3*
X1413787Y3184333D2*
D14*
X2877139D1*
X3029940D2*
X3986201D1*
X1377713Y3174667D2*
X2877139D1*
X3029940D2*
X4022295D1*
X1344842Y3165000D2*
X2877139D1*
X3029940D2*
X4055147D1*
X1324119Y3155333D2*
X2877139D1*
X3029940D2*
X4075889D1*
X1303377Y3145667D2*
X2877139D1*
X3029940D2*
X4096611D1*
X1282654Y3136000D2*
X2877139D1*
X3029940D2*
X4117354D1*
X1267654Y3126333D2*
X2877139D1*
X3029940D2*
X4132334D1*
X1253846Y3116667D2*
X2877139D1*
X3029940D2*
X4146143D1*
X1240037Y3107000D2*
X2877139D1*
X3029940D2*
X4159951D1*
X1226248Y3097333D2*
X2877139D1*
X3029940D2*
X4173760D1*
X1213416Y3087667D2*
X2877139D1*
X3323611D2*
X4186572D1*
X1203748Y3078000D2*
X2877139D1*
X3341541D2*
X4196240D1*
X1194080Y3068333D2*
X2877139D1*
X3351951D2*
X4205908D1*
X1184412Y3058667D2*
X2877139D1*
X3361619D2*
X4215576D1*
X1174764Y3049000D2*
X2877139D1*
X3371287D2*
X4225244D1*
X1165096Y3039333D2*
X2877139D1*
X3380955D2*
X4234912D1*
X1157107Y3029667D2*
X2877139D1*
X3390623D2*
X4242900D1*
X1150330Y3020000D2*
X2877139D1*
X3400291D2*
X4249658D1*
X1143572Y3010333D2*
X2877139D1*
X3409959D2*
X4256436D1*
X1136795Y3000667D2*
X2877139D1*
X3419627D2*
X4263213D1*
X1130037Y2991000D2*
X2877139D1*
X3429295D2*
X4269971D1*
X1123260Y2981333D2*
X2877139D1*
X3438963D2*
X4276748D1*
X1116541Y2971667D2*
X2877139D1*
X3448631D2*
X4283447D1*
X1112049Y2962000D2*
X2877139D1*
X3029940D2*
X3276963D1*
X3458279D2*
X4287959D1*
X1107537Y2952333D2*
X2877139D1*
X3029940D2*
X3286631D1*
X3467947D2*
X4292471D1*
X1103025Y2942667D2*
X2877139D1*
X3029940D2*
X3296299D1*
X3477615D2*
X4296982D1*
X1098514Y2933000D2*
X2877139D1*
X3029940D2*
X3305967D1*
X3487283D2*
X4301475D1*
X1094022Y2923333D2*
X2877139D1*
X3029940D2*
X3315635D1*
X3496951D2*
X4305986D1*
X1089510Y2913667D2*
X2877139D1*
X3029940D2*
X3325303D1*
X3506619D2*
X4310498D1*
X1084998Y2904000D2*
X2877139D1*
X3029940D2*
X3334971D1*
X3516287D2*
X4315010D1*
X1081971Y2894333D2*
X2877139D1*
X3029940D2*
X3344639D1*
X3525955D2*
X4318037D1*
X1079373Y2884667D2*
X2877139D1*
X3029940D2*
X3354307D1*
X3535623D2*
X4320615D1*
X1076795Y2875000D2*
X2877139D1*
X3029940D2*
X3363975D1*
X3545291D2*
X4323213D1*
X1074197Y2865333D2*
X2877139D1*
X3029940D2*
X3373623D1*
X3554959D2*
X4325791D1*
X1071619Y2855667D2*
X2877139D1*
X3029940D2*
X3383291D1*
X3564627D2*
X4328389D1*
X1069022Y2846000D2*
X2369131D1*
X3029940D2*
X3392959D1*
X3574295D2*
X4330986D1*
X1066443Y2836333D2*
X2369131D1*
X3029940D2*
X3402627D1*
X3583963D2*
X4333565D1*
X1063924Y2826667D2*
X2369131D1*
X3029940D2*
X3412295D1*
X3593631D2*
X4336084D1*
X1063065Y2817000D2*
X2369131D1*
X3029940D2*
X3421963D1*
X3603299D2*
X4336924D1*
X1062225Y2807333D2*
X2369131D1*
X3029940D2*
X3431631D1*
X3612947D2*
X4337783D1*
X1061385Y2797667D2*
X2369131D1*
X3029940D2*
X3441299D1*
X3622615D2*
X4338623D1*
X1060545Y2788000D2*
X2369131D1*
X3029940D2*
X3450967D1*
X3632283D2*
X4339463D1*
X1059686Y2778333D2*
X2369131D1*
X3029940D2*
X3460635D1*
X3641951D2*
X4340303D1*
X1058846Y2768667D2*
X2369131D1*
X3029940D2*
X3470303D1*
X3651619D2*
X4341162D1*
X1058006Y2759000D2*
X2369131D1*
X3029940D2*
X3479971D1*
X3661287D2*
X4342002D1*
X1057166Y2749333D2*
X2369131D1*
X3029940D2*
X3489639D1*
X3670955D2*
X4342842D1*
X1057010Y2739667D2*
X2369131D1*
X3029940D2*
X3499307D1*
X3680623D2*
X4342998D1*
X1057010Y2730000D2*
X2369131D1*
X3029940D2*
X3508975D1*
X3690291D2*
X4342998D1*
X1057010Y2720333D2*
X2369131D1*
X3029940D2*
X3518643D1*
X3699959D2*
X4342998D1*
X1057010Y2710667D2*
X2326494D1*
X3029940D2*
X3528291D1*
X3709627D2*
X4342998D1*
X1057010Y2701000D2*
X2313018D1*
X3029940D2*
X3537959D1*
X3719295D2*
X4342998D1*
X1057010Y2691333D2*
X2303291D1*
X3030447D2*
X3547627D1*
X3728963D2*
X4342998D1*
X1057010Y2681667D2*
X2293623D1*
X3040115D2*
X3557295D1*
X3738631D2*
X4342998D1*
X1057010Y2672000D2*
X2283975D1*
X3049783D2*
X3566963D1*
X3748299D2*
X4342998D1*
X1057010Y2662333D2*
X2274307D1*
X3059451D2*
X3576631D1*
X3757947D2*
X4342998D1*
X1057010Y2652667D2*
X2264639D1*
X3069119D2*
X3586299D1*
X3767615D2*
X4342998D1*
X1057010Y2643000D2*
X2254971D1*
X3078787D2*
X3595967D1*
X3777283D2*
X4342998D1*
X1057010Y2633333D2*
X2245303D1*
X3088455D2*
X3605635D1*
X3786951D2*
X4342998D1*
X1057010Y2623667D2*
X2235635D1*
X3098123D2*
X3615303D1*
X3796619D2*
X4342998D1*
X1057010Y2614000D2*
X2225967D1*
X3107791D2*
X3624971D1*
X3806287D2*
X4342998D1*
X1057010Y2604333D2*
X2216299D1*
X3117440D2*
X3634639D1*
X3815955D2*
X4342998D1*
X1057010Y2594667D2*
X2206631D1*
X3127049D2*
X3644307D1*
X3825623D2*
X4342998D1*
X1057010Y2585000D2*
X2196963D1*
X3134451D2*
X3653975D1*
X3835291D2*
X4342998D1*
X1057010Y2575333D2*
X2187295D1*
X3139373D2*
X3663643D1*
X3844959D2*
X4342998D1*
X1057010Y2565667D2*
X2177627D1*
X2358963D2*
X2369131D1*
X3142420D2*
X3673311D1*
X3854627D2*
X4342998D1*
X1057010Y2556000D2*
X2167959D1*
X2349295D2*
X2369131D1*
X3143865D2*
X3682959D1*
X3864295D2*
X4342998D1*
X1057010Y2546333D2*
X2158291D1*
X2339627D2*
X2369131D1*
X3144022D2*
X3692627D1*
X3873963D2*
X4342998D1*
X1057010Y2536667D2*
X2148623D1*
X2329959D2*
X2369131D1*
X3144022D2*
X3702295D1*
X3883631D2*
X4342998D1*
X1057010Y2527000D2*
X2138975D1*
X2320291D2*
X2369131D1*
X3144022D2*
X3711963D1*
X3892615D2*
X4342998D1*
X1057010Y2517333D2*
X2129307D1*
X2310623D2*
X2369131D1*
X3144022D2*
X3721631D1*
X3898826D2*
X4342998D1*
X1057010Y2507667D2*
X2119639D1*
X2300955D2*
X2369131D1*
X3144022D2*
X3731299D1*
X3902908D2*
X4342998D1*
X1057010Y2498000D2*
X2109971D1*
X2291287D2*
X2369131D1*
X3144022D2*
X3740967D1*
X3905232D2*
X4342998D1*
X1057010Y2488333D2*
X2100303D1*
X2281619D2*
X2369131D1*
X3144022D2*
X3750635D1*
X3906033D2*
X4342998D1*
X1057010Y2478667D2*
X2090635D1*
X2271951D2*
X2369131D1*
X3144022D2*
X3760303D1*
X3906033D2*
X4342998D1*
X1057010Y2469000D2*
X2080967D1*
X2262283D2*
X2369131D1*
X3144022D2*
X3769971D1*
X3906033D2*
X4342998D1*
X1057010Y2459333D2*
X2071299D1*
X2252615D2*
X2489385D1*
X2890018D2*
X3015225D1*
X3144022D2*
X3777217D1*
X3906033D2*
X4342998D1*
X1057010Y2449667D2*
X2061631D1*
X2242947D2*
X2485889D1*
X2890018D2*
X3015225D1*
X3144022D2*
X3777217D1*
X3906033D2*
X4342998D1*
X1057010Y2440000D2*
X2051963D1*
X2233279D2*
X2483604D1*
X2890018D2*
X3015225D1*
X3144022D2*
X3777217D1*
X3906033D2*
X4342998D1*
X1057010Y2430333D2*
X2042295D1*
X2223631D2*
X2482412D1*
X2890018D2*
X3015225D1*
X3144022D2*
X3777217D1*
X3906033D2*
X4342998D1*
X1057010Y2420667D2*
X2032627D1*
X2213963D2*
X2482315D1*
X2890018D2*
X3015225D1*
X3144022D2*
X3777217D1*
X3906033D2*
X4342998D1*
X1057010Y2411000D2*
X2022959D1*
X2204295D2*
X2483272D1*
X2890018D2*
X3015225D1*
X3144022D2*
X3777217D1*
X3906033D2*
X4342998D1*
X1057010Y2401333D2*
X2013701D1*
X2194627D2*
X2485322D1*
X2890018D2*
X3015225D1*
X3144022D2*
X3777217D1*
X3906033D2*
X4342998D1*
X1057010Y2391667D2*
X2007139D1*
X2184959D2*
X2488545D1*
X2890018D2*
X3015225D1*
X3144022D2*
X3777217D1*
X3906033D2*
X4342998D1*
X1057010Y2382000D2*
X2002803D1*
X2175291D2*
X2493115D1*
X2890018D2*
X3015225D1*
X3144022D2*
X3777217D1*
X3906033D2*
X4342998D1*
X1057010Y2372333D2*
X2000244D1*
X2165623D2*
X2499268D1*
X2890018D2*
X3015225D1*
X3144022D2*
X3777217D1*
X3906033D2*
X4342998D1*
X1057010Y2362667D2*
X1999248D1*
X2155955D2*
X2507451D1*
X2890018D2*
X3015225D1*
X3144022D2*
X3777217D1*
X3906033D2*
X4342998D1*
X1057010Y2353000D2*
X1999229D1*
X2146287D2*
X2428857D1*
X2890018D2*
X3015225D1*
X3144022D2*
X3777217D1*
X3906033D2*
X4342998D1*
X1057010Y2343333D2*
X1999229D1*
X2136619D2*
X2415693D1*
X2753748D2*
X2761221D1*
X2890018D2*
X3015225D1*
X3144022D2*
X3777217D1*
X3906033D2*
X4342998D1*
X1057010Y2333667D2*
X1999229D1*
X2128025D2*
X2406006D1*
X2746072D2*
X2761221D1*
X2890018D2*
X3015225D1*
X3144022D2*
X3777217D1*
X3906033D2*
X4342998D1*
X1057010Y2324000D2*
X1999229D1*
X2128025D2*
X2396338D1*
X2736404D2*
X2761221D1*
X2890018D2*
X3015225D1*
X3144022D2*
X3777217D1*
X3906033D2*
X4342998D1*
X1057010Y2314333D2*
X1999229D1*
X2128025D2*
X2386670D1*
X2726736D2*
X2761221D1*
X2890018D2*
X3015225D1*
X3144022D2*
X3777217D1*
X3906033D2*
X4342998D1*
X1057010Y2304667D2*
X1999229D1*
X2128025D2*
X2377002D1*
X2717068D2*
X2761221D1*
X2890018D2*
X3015225D1*
X3144022D2*
X3777217D1*
X3906033D2*
X4342998D1*
X1057010Y2295000D2*
X1999229D1*
X2128025D2*
X2367334D1*
X2707420D2*
X2761221D1*
X2890018D2*
X3015225D1*
X3144022D2*
X3777217D1*
X3906033D2*
X4342998D1*
X1057010Y2285333D2*
X1999229D1*
X2128025D2*
X2357666D1*
X2697752D2*
X2761221D1*
X2890018D2*
X3015225D1*
X3144022D2*
X3777217D1*
X3906033D2*
X4342998D1*
X1057010Y2275667D2*
X1999229D1*
X2128025D2*
X2347998D1*
X2688084D2*
X2761221D1*
X2890018D2*
X3015225D1*
X3144022D2*
X3777217D1*
X3906033D2*
X4342998D1*
X1057010Y2266000D2*
X1999229D1*
X2128025D2*
X2338330D1*
X2678416D2*
X2761221D1*
X2890018D2*
X3015225D1*
X3144022D2*
X3777217D1*
X3906033D2*
X4342998D1*
X1057010Y2256333D2*
X1518779D1*
X1592479D2*
X1772783D1*
X1846482D2*
X1999229D1*
X2128025D2*
X2280772D1*
X2668748D2*
X2761221D1*
X2890018D2*
X3015225D1*
X3144022D2*
X3296768D1*
X3370486D2*
X3550772D1*
X3624471D2*
X3727236D1*
X3956033D2*
X4342998D1*
X1057010Y2246667D2*
X1497432D1*
X1613826D2*
X1751436D1*
X1867830D2*
X1999229D1*
X2128025D2*
X2259424D1*
X2658143D2*
X2761221D1*
X2890018D2*
X3015225D1*
X3144022D2*
X3275420D1*
X3391834D2*
X3529424D1*
X3645818D2*
X3727236D1*
X3956033D2*
X4342998D1*
X1057010Y2237000D2*
X1483408D1*
X1627850D2*
X1737412D1*
X1881834D2*
X1991416D1*
X2135838D2*
X2245420D1*
X2643846D2*
X2753408D1*
X2897850D2*
X3007412D1*
X3151834D2*
X3261416D1*
X3405838D2*
X3515420D1*
X3659842D2*
X3727236D1*
X3956033D2*
X4342998D1*
X1057010Y2227333D2*
X1472861D1*
X1638377D2*
X1726865D1*
X1892381D2*
X1980869D1*
X2146385D2*
X2234873D1*
X2480994D2*
X2488877D1*
X2654393D2*
X2742861D1*
X2908377D2*
X2996865D1*
X3162381D2*
X3250869D1*
X3416385D2*
X3504873D1*
X3670389D2*
X3727236D1*
X3956033D2*
X4342998D1*
X1057010Y2217667D2*
X1464580D1*
X1646678D2*
X1718565D1*
X1900682D2*
X1972568D1*
X2154686D2*
X2226572D1*
X2471326D2*
X2480576D1*
X2662674D2*
X2734580D1*
X2916678D2*
X2988565D1*
X3170682D2*
X3242568D1*
X3424686D2*
X3496572D1*
X3678690D2*
X3727236D1*
X3956033D2*
X4342998D1*
X1057010Y2208000D2*
X1457940D1*
X1653318D2*
X1711943D1*
X1907322D2*
X1965928D1*
X2161326D2*
X2219932D1*
X2461658D2*
X2473936D1*
X2669315D2*
X2727940D1*
X2923318D2*
X2981943D1*
X3177322D2*
X3235928D1*
X3431326D2*
X3489932D1*
X3685311D2*
X3727236D1*
X3956033D2*
X4342998D1*
X1057010Y2198333D2*
X1452647D1*
X1658611D2*
X1706650D1*
X1912615D2*
X1960635D1*
X2166619D2*
X2214639D1*
X2451990D2*
X2468643D1*
X2674607D2*
X2722647D1*
X2928611D2*
X2976650D1*
X3182615D2*
X3230635D1*
X3436619D2*
X3484639D1*
X3690604D2*
X3727236D1*
X3956033D2*
X4342998D1*
X1057010Y2188667D2*
X1448486D1*
X1662772D2*
X1702490D1*
X1916775D2*
X1956475D1*
X2170760D2*
X2210479D1*
X2442322D2*
X2464482D1*
X2678768D2*
X2718486D1*
X2932772D2*
X2972490D1*
X3186775D2*
X3226475D1*
X3440760D2*
X3480479D1*
X3694764D2*
X3727236D1*
X3956033D2*
X4342998D1*
X1057010Y2179000D2*
X1445342D1*
X1665916D2*
X1699326D1*
X1919920D2*
X1953330D1*
X2173924D2*
X2207334D1*
X2432654D2*
X2461338D1*
X2681912D2*
X2715342D1*
X2935916D2*
X2969326D1*
X3189920D2*
X3223330D1*
X3443924D2*
X3477334D1*
X3697908D2*
X3727236D1*
X3956033D2*
X4342998D1*
X1057010Y2169333D2*
X1443115D1*
X1668143D2*
X1697119D1*
X1922147D2*
X1951104D1*
X2176150D2*
X2205107D1*
X2430135D2*
X2459111D1*
X2684139D2*
X2713115D1*
X2938143D2*
X2967119D1*
X3192147D2*
X3221104D1*
X3446150D2*
X3475107D1*
X3700135D2*
X3727236D1*
X3956033D2*
X4342998D1*
X1057010Y2159667D2*
X1441748D1*
X1669490D2*
X1695752D1*
X1923494D2*
X1949756D1*
X2177498D2*
X2203760D1*
X2431502D2*
X2457744D1*
X2685506D2*
X2711748D1*
X2939490D2*
X2965752D1*
X3193494D2*
X3219756D1*
X3447498D2*
X3473760D1*
X3701502D2*
X3727236D1*
X3956033D2*
X4342998D1*
X1057010Y2150000D2*
X1441240D1*
X1670018D2*
X1695225D1*
X1924022D2*
X1949229D1*
X2178025D2*
X2203232D1*
X2432029D2*
X2457236D1*
X2686014D2*
X2711240D1*
X2940018D2*
X2965225D1*
X3194022D2*
X3219229D1*
X3448025D2*
X3473232D1*
X3702029D2*
X3727236D1*
X3956033D2*
X4342998D1*
X1057010Y2140333D2*
X1441221D1*
X1670018D2*
X1695225D1*
X1924022D2*
X1949229D1*
X2178025D2*
X2203232D1*
X2432029D2*
X2457236D1*
X2686033D2*
X2711221D1*
X2940018D2*
X2965225D1*
X3194022D2*
X3219229D1*
X3448025D2*
X3473232D1*
X3702029D2*
X3727236D1*
X3956033D2*
X4342998D1*
X1057010Y2130667D2*
X1441221D1*
X1670018D2*
X1695225D1*
X1924022D2*
X1949229D1*
X2178025D2*
X2203232D1*
X2432029D2*
X2457236D1*
X2686033D2*
X2711221D1*
X2940018D2*
X2965225D1*
X3194022D2*
X3219229D1*
X3448025D2*
X3473232D1*
X3702029D2*
X3727236D1*
X3956033D2*
X4342998D1*
X1057010Y2121000D2*
X1441494D1*
X1669764D2*
X1695498D1*
X1923768D2*
X1949482D1*
X2177752D2*
X2203486D1*
X2431756D2*
X2457490D1*
X2685760D2*
X2711494D1*
X2939764D2*
X2965498D1*
X3193768D2*
X3219482D1*
X3447752D2*
X3473486D1*
X3701756D2*
X3727236D1*
X3956033D2*
X4342998D1*
X1057010Y2111333D2*
X1442568D1*
X1668690D2*
X1696572D1*
X1922674D2*
X1950576D1*
X2176678D2*
X2204580D1*
X2430682D2*
X2458565D1*
X2684686D2*
X2712568D1*
X2938690D2*
X2966572D1*
X3192674D2*
X3220576D1*
X3446678D2*
X3474580D1*
X3700682D2*
X3727236D1*
X3956033D2*
X4342998D1*
X1057010Y2101667D2*
X1444502D1*
X1666736D2*
X1698506D1*
X1920740D2*
X1952510D1*
X2174744D2*
X2206514D1*
X2428748D2*
X2460518D1*
X2682752D2*
X2714502D1*
X2936736D2*
X2968506D1*
X3190740D2*
X3222510D1*
X3444744D2*
X3476514D1*
X3698748D2*
X3727236D1*
X3956033D2*
X4342998D1*
X1057010Y2092000D2*
X1447354D1*
X1663904D2*
X1701338D1*
X1917908D2*
X1955342D1*
X2171912D2*
X2209346D1*
X2425916D2*
X2463350D1*
X2679900D2*
X2717354D1*
X2933904D2*
X2971338D1*
X3187908D2*
X3225342D1*
X3441912D2*
X3479346D1*
X3695916D2*
X3727236D1*
X3956033D2*
X4342998D1*
X1057010Y2082333D2*
X1451162D1*
X1660096D2*
X1705166D1*
X1914100D2*
X1959170D1*
X2168084D2*
X2213154D1*
X2422088D2*
X2467158D1*
X2676092D2*
X2721162D1*
X2930096D2*
X2975166D1*
X3184100D2*
X3229170D1*
X3438084D2*
X3483154D1*
X3692088D2*
X3727236D1*
X3956033D2*
X4342998D1*
X1057010Y2072667D2*
X1456065D1*
X1655193D2*
X1710068D1*
X1909178D2*
X1964072D1*
X2163182D2*
X2218057D1*
X2417186D2*
X2472061D1*
X2671190D2*
X2726065D1*
X2925193D2*
X2980068D1*
X3179178D2*
X3234072D1*
X3433182D2*
X3488057D1*
X3687186D2*
X3727236D1*
X3956033D2*
X4342998D1*
X1057010Y2063000D2*
X1462236D1*
X1649022D2*
X1716240D1*
X1903025D2*
X1970225D1*
X2157029D2*
X2224229D1*
X2411014D2*
X2478232D1*
X2665018D2*
X2732236D1*
X2919022D2*
X2986240D1*
X3173025D2*
X3240225D1*
X3427029D2*
X3494229D1*
X3681014D2*
X3727236D1*
X3956033D2*
X4342998D1*
X1057010Y2053333D2*
X1469932D1*
X1641307D2*
X1723936D1*
X1895311D2*
X1977940D1*
X2149315D2*
X2231943D1*
X2403318D2*
X2485947D1*
X2657322D2*
X2739932D1*
X2911307D2*
X2993936D1*
X3165311D2*
X3247940D1*
X3419315D2*
X3501943D1*
X3673318D2*
X3727236D1*
X3956033D2*
X4342998D1*
X1057010Y2043667D2*
X1479658D1*
X1631600D2*
X1733662D1*
X1885604D2*
X1987666D1*
X2139588D2*
X2241650D1*
X2393592D2*
X2495654D1*
X2647596D2*
X2749658D1*
X2901600D2*
X3003662D1*
X3155604D2*
X3257666D1*
X3409588D2*
X3511650D1*
X3663592D2*
X3727236D1*
X3956033D2*
X4342998D1*
X1057010Y2034000D2*
X1492315D1*
X1618924D2*
X1746318D1*
X1872928D2*
X2000049D1*
X2128846D2*
X2254033D1*
X2382850D2*
X2508330D1*
X2634940D2*
X2762041D1*
X2890838D2*
X3016045D1*
X3144842D2*
X3270049D1*
X3398846D2*
X3524033D1*
X3652850D2*
X3727236D1*
X3956033D2*
X4342998D1*
X1057010Y2024333D2*
X1510400D1*
X1600857D2*
X1764385D1*
X1854861D2*
X2000049D1*
X2128846D2*
X2254033D1*
X2382850D2*
X2526397D1*
X2616854D2*
X2762041D1*
X2890838D2*
X3016045D1*
X3144842D2*
X3270049D1*
X3398846D2*
X3524033D1*
X3652850D2*
X3727236D1*
X3956033D2*
X4342998D1*
X1057010Y2014667D2*
X2000049D1*
X2128846D2*
X2254033D1*
X2382850D2*
X2762041D1*
X2890838D2*
X3016045D1*
X3144842D2*
X3270049D1*
X3398846D2*
X3524033D1*
X3652850D2*
X3778037D1*
X3906834D2*
X4342998D1*
X1057010Y2005000D2*
X2000049D1*
X2128846D2*
X2254033D1*
X2382850D2*
X2762041D1*
X2890838D2*
X3016045D1*
X3144842D2*
X3270049D1*
X3398846D2*
X3524033D1*
X3652850D2*
X3778037D1*
X3906834D2*
X4342998D1*
X1057010Y1995333D2*
X2000049D1*
X2128846D2*
X2254033D1*
X2382850D2*
X2762041D1*
X2890838D2*
X3016045D1*
X3144842D2*
X3270049D1*
X3398846D2*
X3524033D1*
X3652850D2*
X3778037D1*
X3906834D2*
X4342998D1*
X1057010Y1985667D2*
X2000049D1*
X2128846D2*
X2254033D1*
X2382850D2*
X2762041D1*
X2890838D2*
X3016045D1*
X3144842D2*
X3270049D1*
X3398846D2*
X3524033D1*
X3652850D2*
X3778037D1*
X3906834D2*
X4342998D1*
X1057010Y1976000D2*
X2000049D1*
X2128846D2*
X2254033D1*
X2382850D2*
X2762041D1*
X2890838D2*
X3016045D1*
X3144842D2*
X3270049D1*
X3398846D2*
X3524033D1*
X3652850D2*
X3778037D1*
X3906834D2*
X4342998D1*
X1057010Y1966333D2*
X2000049D1*
X2128846D2*
X2254033D1*
X2382850D2*
X2762041D1*
X2890838D2*
X3016045D1*
X3144842D2*
X3270049D1*
X3398846D2*
X3524033D1*
X3652850D2*
X3778037D1*
X3906834D2*
X4342998D1*
X1057010Y1956667D2*
X2000049D1*
X2128846D2*
X2254033D1*
X2382850D2*
X2762041D1*
X2890838D2*
X3016045D1*
X3144842D2*
X3270049D1*
X3398846D2*
X3524033D1*
X3652850D2*
X3778037D1*
X3906834D2*
X4342998D1*
X1057010Y1947000D2*
X2000049D1*
X2128846D2*
X2254033D1*
X2382850D2*
X2762041D1*
X2890838D2*
X3016045D1*
X3144842D2*
X3270049D1*
X3398846D2*
X3524033D1*
X3652850D2*
X3778037D1*
X3906834D2*
X4342998D1*
X1057010Y1937333D2*
X2000049D1*
X2128846D2*
X2254033D1*
X2382850D2*
X2762041D1*
X2890838D2*
X3016045D1*
X3144842D2*
X3270049D1*
X3398846D2*
X3524033D1*
X3652850D2*
X3778037D1*
X3906834D2*
X4342998D1*
X1057010Y1927667D2*
X2000049D1*
X2128846D2*
X2254033D1*
X2382850D2*
X2762041D1*
X2890838D2*
X3016045D1*
X3144842D2*
X3270049D1*
X3398846D2*
X3524033D1*
X3652850D2*
X3778037D1*
X3906834D2*
X4342998D1*
X1057010Y1918000D2*
X2000049D1*
X2128846D2*
X2254033D1*
X2382850D2*
X2762041D1*
X2890838D2*
X3016045D1*
X3144842D2*
X3270049D1*
X3398846D2*
X3524033D1*
X3652850D2*
X3778037D1*
X3906834D2*
X4342998D1*
X1057010Y1908333D2*
X2000049D1*
X2128846D2*
X2254033D1*
X2382850D2*
X2762041D1*
X2890838D2*
X3016045D1*
X3144842D2*
X3270049D1*
X3398846D2*
X3524033D1*
X3652850D2*
X3778037D1*
X3906834D2*
X4342998D1*
X1057010Y1898667D2*
X2000049D1*
X2128846D2*
X2254033D1*
X2382850D2*
X2762041D1*
X2890838D2*
X3016045D1*
X3144842D2*
X3270049D1*
X3398846D2*
X3524033D1*
X3652850D2*
X3778037D1*
X3906834D2*
X4342998D1*
X1057010Y1889000D2*
X2000049D1*
X2128846D2*
X2254033D1*
X2382850D2*
X2762041D1*
X2890838D2*
X3016045D1*
X3144842D2*
X3270049D1*
X3398846D2*
X3524033D1*
X3652850D2*
X3778037D1*
X3906834D2*
X4342998D1*
X1057010Y1879333D2*
X2000049D1*
X2128846D2*
X2254033D1*
X2382850D2*
X2762041D1*
X2890838D2*
X3016045D1*
X3144842D2*
X3270049D1*
X3398846D2*
X3524033D1*
X3652850D2*
X3778037D1*
X3906834D2*
X4342998D1*
X1057010Y1869667D2*
X2000049D1*
X2128846D2*
X2254033D1*
X2382850D2*
X2762041D1*
X2890838D2*
X3016045D1*
X3144842D2*
X3270049D1*
X3398846D2*
X3524033D1*
X3652850D2*
X3778037D1*
X3906834D2*
X4342998D1*
X1057010Y1860000D2*
X2000049D1*
X2128846D2*
X2254033D1*
X2382850D2*
X2762041D1*
X2890838D2*
X3016045D1*
X3144842D2*
X3270049D1*
X3398846D2*
X3524033D1*
X3652850D2*
X3778037D1*
X3906834D2*
X4342998D1*
X1057010Y1850333D2*
X2000049D1*
X2128846D2*
X2254033D1*
X2382850D2*
X2762041D1*
X2890838D2*
X3016045D1*
X3144842D2*
X3270049D1*
X3398846D2*
X3524033D1*
X3652850D2*
X3778037D1*
X3906834D2*
X4342998D1*
X1057010Y1840667D2*
X2000049D1*
X2128846D2*
X2254033D1*
X2382850D2*
X2762041D1*
X2890838D2*
X3016045D1*
X3144842D2*
X3270049D1*
X3398846D2*
X3524033D1*
X3652850D2*
X3778037D1*
X3906834D2*
X4342998D1*
X1057010Y1831000D2*
X2000049D1*
X2128846D2*
X2254033D1*
X2382850D2*
X2762041D1*
X2890838D2*
X3016045D1*
X3144842D2*
X3270049D1*
X3398846D2*
X3524033D1*
X3652850D2*
X3778037D1*
X3906834D2*
X4342998D1*
X1057010Y1821333D2*
X2000049D1*
X2128846D2*
X2254033D1*
X2382850D2*
X2762041D1*
X2890838D2*
X3016045D1*
X3144842D2*
X3270049D1*
X3398846D2*
X3524033D1*
X3652850D2*
X3778037D1*
X3906834D2*
X4342998D1*
X1057010Y1811667D2*
X2000049D1*
X2128846D2*
X2254033D1*
X2382850D2*
X2762041D1*
X2890838D2*
X3016045D1*
X3144842D2*
X3270049D1*
X3398846D2*
X3524033D1*
X3652850D2*
X3778037D1*
X3906834D2*
X4342998D1*
X1057010Y1802000D2*
X2000049D1*
X2128846D2*
X2254033D1*
X2382850D2*
X2762041D1*
X2890838D2*
X3016045D1*
X3144842D2*
X3270049D1*
X3398846D2*
X3524033D1*
X3652850D2*
X3778037D1*
X3906834D2*
X4342998D1*
X1057010Y1792333D2*
X2000049D1*
X2128846D2*
X2254033D1*
X2382850D2*
X2762041D1*
X2890838D2*
X3016045D1*
X3144842D2*
X3270049D1*
X3398846D2*
X3524033D1*
X3652850D2*
X3778037D1*
X3906834D2*
X4342998D1*
X1057010Y1782667D2*
X2000049D1*
X2128846D2*
X2254033D1*
X2382850D2*
X2762041D1*
X2890838D2*
X3016045D1*
X3144842D2*
X3270049D1*
X3398846D2*
X3524033D1*
X3652850D2*
X3778037D1*
X3906834D2*
X4342998D1*
X1057010Y1773000D2*
X2000049D1*
X2128846D2*
X2254033D1*
X2382850D2*
X2762041D1*
X2890838D2*
X3016045D1*
X3144842D2*
X3270049D1*
X3398846D2*
X3524033D1*
X3652850D2*
X3778037D1*
X3906834D2*
X4342998D1*
X1057010Y1763333D2*
X2000049D1*
X2128846D2*
X2254033D1*
X2382850D2*
X2762041D1*
X2890838D2*
X3016045D1*
X3144842D2*
X3270049D1*
X3398846D2*
X3524033D1*
X3652850D2*
X3778037D1*
X3906834D2*
X4342998D1*
X1057010Y1753667D2*
X1544990D1*
X1567908D2*
X1798975D1*
X1821893D2*
X2000049D1*
X2128846D2*
X2254033D1*
X2382850D2*
X2560986D1*
X2583904D2*
X2762041D1*
X2890838D2*
X3016045D1*
X3144842D2*
X3270049D1*
X3398846D2*
X3524033D1*
X3652850D2*
X3728037D1*
X3956834D2*
X4342998D1*
X1057010Y1744000D2*
X1508545D1*
X1604334D2*
X1762549D1*
X1858338D2*
X2000049D1*
X2128846D2*
X2254033D1*
X2382850D2*
X2524541D1*
X2620330D2*
X2762041D1*
X2890838D2*
X3016045D1*
X3144842D2*
X3270049D1*
X3398846D2*
X3524033D1*
X3652850D2*
X3728037D1*
X3956834D2*
X4342998D1*
X1057010Y1734333D2*
X1491397D1*
X1621482D2*
X1745400D1*
X1875486D2*
X1999404D1*
X2129490D2*
X2253389D1*
X2383494D2*
X2507393D1*
X2637479D2*
X2761397D1*
X2891482D2*
X3015400D1*
X3145486D2*
X3269404D1*
X3399490D2*
X3523389D1*
X3653494D2*
X3728037D1*
X3956834D2*
X4342998D1*
X1057010Y1724667D2*
X1479170D1*
X1633709D2*
X1733174D1*
X1887713D2*
X1987158D1*
X2141717D2*
X2241162D1*
X2395721D2*
X2495166D1*
X2649705D2*
X2749170D1*
X2903709D2*
X3003174D1*
X3157713D2*
X3257158D1*
X3411717D2*
X3511162D1*
X3665721D2*
X3728037D1*
X3956834D2*
X4342998D1*
X1057010Y1715000D2*
X1469736D1*
X1643143D2*
X1723721D1*
X1897147D2*
X1977725D1*
X2151150D2*
X2231729D1*
X2405154D2*
X2485732D1*
X2659158D2*
X2739736D1*
X2913143D2*
X2993721D1*
X3167147D2*
X3247725D1*
X3421150D2*
X3501729D1*
X3675154D2*
X3728037D1*
X3956834D2*
X4342998D1*
X1057010Y1705333D2*
X1462236D1*
X1650643D2*
X1716221D1*
X1904647D2*
X1970225D1*
X2158650D2*
X2224229D1*
X2412654D2*
X2478232D1*
X2666658D2*
X2732236D1*
X2920643D2*
X2986221D1*
X3174647D2*
X3240225D1*
X3428650D2*
X3494229D1*
X3682654D2*
X3728037D1*
X3956834D2*
X4342998D1*
X1057010Y1695667D2*
X1456221D1*
X1656658D2*
X1710225D1*
X1910662D2*
X1964229D1*
X2164647D2*
X2218232D1*
X2418650D2*
X2472217D1*
X2672654D2*
X2726221D1*
X2926658D2*
X2980225D1*
X3180662D2*
X3234229D1*
X3434647D2*
X3488232D1*
X3688650D2*
X3728037D1*
X3956834D2*
X4342998D1*
X1057010Y1686000D2*
X1451455D1*
X1661424D2*
X1705459D1*
X1915428D2*
X1959463D1*
X2169412D2*
X2213467D1*
X2423416D2*
X2467451D1*
X2677420D2*
X2721455D1*
X2931424D2*
X2975459D1*
X3185428D2*
X3229463D1*
X3439412D2*
X3483467D1*
X3693416D2*
X3728037D1*
X3956834D2*
X4342998D1*
X1057010Y1676333D2*
X1447764D1*
X1665115D2*
X1701768D1*
X1919119D2*
X1955772D1*
X2173104D2*
X2209775D1*
X2427107D2*
X2463760D1*
X2681111D2*
X2717764D1*
X2935115D2*
X2971768D1*
X3189119D2*
X3225772D1*
X3443104D2*
X3479775D1*
X3697107D2*
X3728037D1*
X3956834D2*
X4342998D1*
X1057010Y1666667D2*
X1445049D1*
X1667830D2*
X1699033D1*
X1921834D2*
X1953037D1*
X2175838D2*
X2207041D1*
X2429842D2*
X2461045D1*
X2683846D2*
X2715049D1*
X2937830D2*
X2969033D1*
X3191834D2*
X3223037D1*
X3445838D2*
X3477041D1*
X3699842D2*
X3728037D1*
X3956834D2*
X4342998D1*
X1057010Y1657000D2*
X1443213D1*
X1669666D2*
X1697217D1*
X1923670D2*
X1951201D1*
X2177674D2*
X2205205D1*
X2431678D2*
X2459209D1*
X2685662D2*
X2713213D1*
X2939666D2*
X2967217D1*
X3193670D2*
X3221201D1*
X3447674D2*
X3475205D1*
X3701678D2*
X3728037D1*
X3956834D2*
X4342998D1*
X1057010Y1647333D2*
X1442236D1*
X1670643D2*
X1696240D1*
X1924647D2*
X1950225D1*
X2178650D2*
X2204229D1*
X2432654D2*
X2458232D1*
X2686658D2*
X2712236D1*
X2940643D2*
X2966240D1*
X3194647D2*
X3220225D1*
X3448650D2*
X3474229D1*
X3702654D2*
X3728037D1*
X3956834D2*
X4342998D1*
X1057010Y1637667D2*
X1442041D1*
X1670838D2*
X1696045D1*
X1924842D2*
X1950049D1*
X2178846D2*
X2204033D1*
X2432850D2*
X2458037D1*
X2686834D2*
X2712041D1*
X2940838D2*
X2966045D1*
X3194842D2*
X3220049D1*
X3448846D2*
X3474033D1*
X3702850D2*
X3728037D1*
X3956834D2*
X4342998D1*
X1057010Y1628000D2*
X1442041D1*
X1670838D2*
X1696045D1*
X1924842D2*
X1950049D1*
X2178846D2*
X2204033D1*
X2432850D2*
X2458037D1*
X2686834D2*
X2712041D1*
X2940838D2*
X2966045D1*
X3194842D2*
X3220049D1*
X3448846D2*
X3474033D1*
X3702850D2*
X3728037D1*
X3956834D2*
X4342998D1*
X1057010Y1618333D2*
X1442061D1*
X1670818D2*
X1696065D1*
X1924822D2*
X1950068D1*
X2178807D2*
X2204072D1*
X2432811D2*
X2458057D1*
X2686815D2*
X2712061D1*
X2940818D2*
X2966065D1*
X3194822D2*
X3220068D1*
X3448807D2*
X3474072D1*
X3702811D2*
X3728037D1*
X3956834D2*
X4342998D1*
X1057010Y1608667D2*
X1442686D1*
X1670193D2*
X1696690D1*
X1924197D2*
X1950693D1*
X2178201D2*
X2204678D1*
X2432186D2*
X2458682D1*
X2686190D2*
X2712686D1*
X2940193D2*
X2966690D1*
X3194197D2*
X3220693D1*
X3448201D2*
X3474678D1*
X3702186D2*
X3728037D1*
X3956834D2*
X4342998D1*
X1057010Y1599000D2*
X1444150D1*
X1668729D2*
X1698154D1*
X1922732D2*
X1952139D1*
X2176736D2*
X2206143D1*
X2430740D2*
X2460147D1*
X2684744D2*
X2714150D1*
X2938729D2*
X2968154D1*
X3192732D2*
X3222139D1*
X3446736D2*
X3476143D1*
X3700740D2*
X3728037D1*
X3956834D2*
X4342998D1*
X1057010Y1589333D2*
X1446475D1*
X1666404D2*
X1700479D1*
X1920408D2*
X1954482D1*
X2174393D2*
X2208486D1*
X2428397D2*
X2462471D1*
X2682400D2*
X2716475D1*
X2936404D2*
X2970479D1*
X3190408D2*
X3224482D1*
X3444393D2*
X3478486D1*
X3698397D2*
X3728037D1*
X3956834D2*
X4342998D1*
X1057010Y1579667D2*
X1449736D1*
X1663143D2*
X1703740D1*
X1917127D2*
X1957744D1*
X2171131D2*
X2211748D1*
X2425135D2*
X2465752D1*
X2679139D2*
X2719736D1*
X2933143D2*
X2973740D1*
X3187127D2*
X3227744D1*
X3441131D2*
X3481748D1*
X3695135D2*
X3728037D1*
X3956834D2*
X4342998D1*
X1057010Y1570000D2*
X1454033D1*
X1658846D2*
X1708037D1*
X1912850D2*
X1962022D1*
X2166854D2*
X2216025D1*
X2420857D2*
X2470029D1*
X2674842D2*
X2724033D1*
X2928846D2*
X2978037D1*
X3182850D2*
X3232022D1*
X3436854D2*
X3486025D1*
X3690857D2*
X3728037D1*
X3956834D2*
X4342998D1*
X1057010Y1560333D2*
X1459482D1*
X1653397D2*
X1713467D1*
X1907400D2*
X1967471D1*
X2161404D2*
X2221475D1*
X2415408D2*
X2475479D1*
X2669412D2*
X2729482D1*
X2923397D2*
X2983467D1*
X3177400D2*
X3237471D1*
X3431404D2*
X3491475D1*
X3685408D2*
X3728037D1*
X3956834D2*
X4342998D1*
X1057010Y1550667D2*
X1466279D1*
X1646600D2*
X1720283D1*
X1900584D2*
X1974287D1*
X2154588D2*
X2228291D1*
X2408592D2*
X2482295D1*
X2662596D2*
X2736279D1*
X2916600D2*
X2990283D1*
X3170584D2*
X3244287D1*
X3424588D2*
X3498291D1*
X3678592D2*
X3728037D1*
X3956834D2*
X4342998D1*
X1057010Y1541000D2*
X1474815D1*
X1638065D2*
X1728818D1*
X1892068D2*
X1982822D1*
X2146053D2*
X2236826D1*
X2400057D2*
X2490830D1*
X2654061D2*
X2744815D1*
X2908065D2*
X2998818D1*
X3162068D2*
X3252822D1*
X3416053D2*
X3506826D1*
X3670057D2*
X3728037D1*
X3956834D2*
X4342998D1*
X1057010Y1531333D2*
X1485693D1*
X1627186D2*
X1739697D1*
X1881190D2*
X1993701D1*
X2135193D2*
X2247705D1*
X2389178D2*
X2501690D1*
X2643182D2*
X2755693D1*
X2897186D2*
X3009697D1*
X3151190D2*
X3263701D1*
X3405193D2*
X3517705D1*
X3659178D2*
X3728037D1*
X3956834D2*
X4342998D1*
X1057010Y1521667D2*
X1500283D1*
X1612596D2*
X1754287D1*
X1866600D2*
X2008291D1*
X2120604D2*
X2262275D1*
X2374588D2*
X2516279D1*
X2628592D2*
X2770283D1*
X2882596D2*
X3024287D1*
X3136600D2*
X3278291D1*
X3390604D2*
X3532275D1*
X3644588D2*
X3728037D1*
X3956834D2*
X4342998D1*
X1057010Y1512000D2*
X1523291D1*
X1589588D2*
X1777295D1*
X1843572D2*
X2031299D1*
X2097576D2*
X2285303D1*
X2351580D2*
X2539307D1*
X2605584D2*
X2793291D1*
X2859588D2*
X3047295D1*
X3113572D2*
X3301299D1*
X3367576D2*
X3555303D1*
X3621580D2*
X3728037D1*
X3956834D2*
X4342998D1*
X1057010Y1502333D2*
X4342998D1*
X1057010Y1492667D2*
X1514932D1*
X1597947D2*
X1768936D1*
X1851951D2*
X2022920D1*
X2105955D2*
X2276924D1*
X2359959D2*
X2530928D1*
X2613943D2*
X2784932D1*
X2867947D2*
X3038936D1*
X3121951D2*
X3292920D1*
X3375955D2*
X3546924D1*
X3629959D2*
X3800928D1*
X3883943D2*
X4342998D1*
X1057010Y1483000D2*
X1495479D1*
X1617400D2*
X1749482D1*
X1871404D2*
X2003486D1*
X2125408D2*
X2257471D1*
X2379412D2*
X2511475D1*
X2633397D2*
X2765479D1*
X2887400D2*
X3019482D1*
X3141404D2*
X3273486D1*
X3395408D2*
X3527471D1*
X3649412D2*
X3781475D1*
X3903397D2*
X4342998D1*
X1057010Y1473333D2*
X1482217D1*
X1630662D2*
X1736201D1*
X1884666D2*
X1990205D1*
X2138670D2*
X2244209D1*
X2392674D2*
X2498213D1*
X2646678D2*
X2752217D1*
X2900662D2*
X3006201D1*
X3154666D2*
X3260205D1*
X3408670D2*
X3514209D1*
X3662674D2*
X3768213D1*
X3916678D2*
X4342998D1*
X1057010Y1463667D2*
X1472119D1*
X1640760D2*
X1726104D1*
X1894764D2*
X1980107D1*
X2148768D2*
X2234111D1*
X2402772D2*
X2488115D1*
X2656775D2*
X2742119D1*
X2910760D2*
X2996104D1*
X3164764D2*
X3250107D1*
X3418768D2*
X3504111D1*
X3672772D2*
X3758115D1*
X3926775D2*
X4342998D1*
X1057010Y1454000D2*
X1464131D1*
X1648748D2*
X1718135D1*
X1902752D2*
X1972139D1*
X2156756D2*
X2226143D1*
X2410740D2*
X2480127D1*
X2664744D2*
X2734131D1*
X2918748D2*
X2988135D1*
X3172752D2*
X3242139D1*
X3426756D2*
X3496143D1*
X3680740D2*
X3750127D1*
X3934744D2*
X4342998D1*
X1057010Y1444333D2*
X1457744D1*
X1655135D2*
X1711748D1*
X1909139D2*
X1965752D1*
X2163123D2*
X2219756D1*
X2417127D2*
X2473740D1*
X2671131D2*
X2727744D1*
X2925135D2*
X2981748D1*
X3179139D2*
X3235752D1*
X3433123D2*
X3489756D1*
X3687127D2*
X3743740D1*
X3941131D2*
X4342998D1*
X1057010Y1434667D2*
X1452666D1*
X1660213D2*
X1706670D1*
X1914217D2*
X1960654D1*
X2168221D2*
X2214658D1*
X2422225D2*
X2468662D1*
X2676229D2*
X2722666D1*
X2930213D2*
X2976670D1*
X3184217D2*
X3230654D1*
X3438221D2*
X3484658D1*
X3692225D2*
X3738662D1*
X3946229D2*
X4342998D1*
X1057010Y1425000D2*
X1448682D1*
X1664197D2*
X1702686D1*
X1918201D2*
X1956690D1*
X2172186D2*
X2210693D1*
X2426190D2*
X2464678D1*
X2680193D2*
X2718682D1*
X2934197D2*
X2972686D1*
X3188201D2*
X3226690D1*
X3442186D2*
X3480693D1*
X3696190D2*
X3734678D1*
X3950193D2*
X4342998D1*
X1057010Y1415333D2*
X1445693D1*
X1667186D2*
X1699697D1*
X1921170D2*
X1953701D1*
X2175174D2*
X2207705D1*
X2429178D2*
X2461709D1*
X2683182D2*
X2715693D1*
X2937186D2*
X2969697D1*
X3191170D2*
X3223701D1*
X3445174D2*
X3477705D1*
X3699178D2*
X3731709D1*
X3953182D2*
X4342998D1*
X1057010Y1405667D2*
X1443623D1*
X1669256D2*
X1697627D1*
X1923260D2*
X1951631D1*
X2177244D2*
X2205635D1*
X2431248D2*
X2459619D1*
X2685252D2*
X2713623D1*
X2939256D2*
X2967627D1*
X3193260D2*
X3221631D1*
X3447244D2*
X3475635D1*
X3701248D2*
X3729619D1*
X3955252D2*
X4342998D1*
X1057010Y1396000D2*
X1442412D1*
X1670467D2*
X1696416D1*
X1924471D2*
X1950420D1*
X2178455D2*
X2204424D1*
X2432459D2*
X2458408D1*
X2686463D2*
X2712412D1*
X2940467D2*
X2966416D1*
X3194471D2*
X3220420D1*
X3448455D2*
X3474424D1*
X3702459D2*
X3728408D1*
X3956463D2*
X4342998D1*
X1057010Y1386333D2*
X1442041D1*
X1670838D2*
X1696045D1*
X1924842D2*
X1950049D1*
X2178846D2*
X2204033D1*
X2432850D2*
X2458037D1*
X2686834D2*
X2712041D1*
X2940838D2*
X2966045D1*
X3194842D2*
X3220049D1*
X3448846D2*
X3474033D1*
X3702850D2*
X3728037D1*
X3956834D2*
X4342998D1*
X1057010Y1376667D2*
X1442041D1*
X1670838D2*
X1696045D1*
X1924842D2*
X1950049D1*
X2178846D2*
X2204033D1*
X2432850D2*
X2458037D1*
X2686834D2*
X2712041D1*
X2940838D2*
X2966045D1*
X3194842D2*
X3220049D1*
X3448846D2*
X3474033D1*
X3702850D2*
X3728037D1*
X3956834D2*
X4342998D1*
X1057010Y1367000D2*
X1442041D1*
X1670838D2*
X1696045D1*
X1924842D2*
X1950049D1*
X2178846D2*
X2204033D1*
X2432850D2*
X2458037D1*
X2686834D2*
X2712041D1*
X2940838D2*
X2966045D1*
X3194842D2*
X3220049D1*
X3448846D2*
X3474033D1*
X3702850D2*
X3728037D1*
X3956834D2*
X4342998D1*
X1057010Y1357333D2*
X1442432D1*
X1670447D2*
X1696436D1*
X1924451D2*
X1950440D1*
X2178455D2*
X2204424D1*
X2432440D2*
X2458428D1*
X2686443D2*
X2712432D1*
X2940447D2*
X2966436D1*
X3194451D2*
X3220440D1*
X3448455D2*
X3474424D1*
X3702440D2*
X3728428D1*
X3956443D2*
X4342998D1*
X1057010Y1347667D2*
X1443662D1*
X1669217D2*
X1697666D1*
X1923221D2*
X1951650D1*
X2177225D2*
X2205654D1*
X2431229D2*
X2459658D1*
X2685232D2*
X2713662D1*
X2939217D2*
X2967666D1*
X3193221D2*
X3221650D1*
X3447225D2*
X3475654D1*
X3701229D2*
X3729658D1*
X3955232D2*
X4342998D1*
X1057010Y1338000D2*
X1445752D1*
X1667127D2*
X1699736D1*
X1921131D2*
X1953740D1*
X2175135D2*
X2207744D1*
X2429139D2*
X2461748D1*
X2683143D2*
X2715752D1*
X2937127D2*
X2969736D1*
X3191131D2*
X3223740D1*
X3445135D2*
X3477744D1*
X3699139D2*
X3731748D1*
X3953143D2*
X4342998D1*
X1057010Y1328333D2*
X1448740D1*
X1664139D2*
X1702744D1*
X1918143D2*
X1956748D1*
X2172127D2*
X2210752D1*
X2426131D2*
X2464736D1*
X2680135D2*
X2718740D1*
X2934139D2*
X2972744D1*
X3188143D2*
X3226748D1*
X3442127D2*
X3480752D1*
X3696131D2*
X3734736D1*
X3950135D2*
X4342998D1*
X1057010Y1318667D2*
X1452744D1*
X1660135D2*
X1706748D1*
X1914139D2*
X1960732D1*
X2168143D2*
X2214736D1*
X2422147D2*
X2468740D1*
X2676150D2*
X2722744D1*
X2930135D2*
X2976748D1*
X3184139D2*
X3230732D1*
X3438143D2*
X3484736D1*
X3692147D2*
X3738740D1*
X3946150D2*
X4342998D1*
X1057010Y1309000D2*
X1457842D1*
X1655037D2*
X1711846D1*
X1909041D2*
X1965850D1*
X2163025D2*
X2219854D1*
X2417029D2*
X2473838D1*
X2671033D2*
X2727842D1*
X2925037D2*
X2981846D1*
X3179041D2*
X3235850D1*
X3433025D2*
X3489854D1*
X3687029D2*
X3743838D1*
X3941033D2*
X4342998D1*
X1057010Y1299333D2*
X1464248D1*
X1648631D2*
X1718252D1*
X1902615D2*
X1972256D1*
X2156619D2*
X2226260D1*
X2410623D2*
X2480264D1*
X2664627D2*
X2734248D1*
X2918631D2*
X2988252D1*
X3172615D2*
X3242256D1*
X3426619D2*
X3496260D1*
X3680623D2*
X3750264D1*
X3934627D2*
X4342998D1*
X1057010Y1289667D2*
X1472275D1*
X1640604D2*
X1726260D1*
X1894607D2*
X1980264D1*
X2148611D2*
X2234268D1*
X2402615D2*
X2488272D1*
X2656619D2*
X2742275D1*
X2910604D2*
X2996260D1*
X3164607D2*
X3250264D1*
X3418611D2*
X3504268D1*
X3672615D2*
X3758272D1*
X3926619D2*
X4342998D1*
X1057010Y1280000D2*
X1482412D1*
X1630467D2*
X1736397D1*
X1884471D2*
X1990400D1*
X2138475D2*
X2244404D1*
X2392479D2*
X2498408D1*
X2646482D2*
X2752412D1*
X2900467D2*
X3006397D1*
X3154471D2*
X3260400D1*
X3408475D2*
X3514404D1*
X3662479D2*
X3768408D1*
X3916482D2*
X4342998D1*
X1057010Y1270333D2*
X1495752D1*
X1617127D2*
X1749736D1*
X1871131D2*
X2003740D1*
X2125135D2*
X2257744D1*
X2379139D2*
X2511748D1*
X2633143D2*
X2765752D1*
X2887127D2*
X3019736D1*
X3141131D2*
X3273740D1*
X3395135D2*
X3527744D1*
X3649139D2*
X3781748D1*
X3903143D2*
X4342998D1*
X1057010Y1260667D2*
X1515361D1*
X1597518D2*
X1769365D1*
X1851522D2*
X2023369D1*
X2105506D2*
X2277373D1*
X2359510D2*
X2531357D1*
X2613514D2*
X2785361D1*
X2867518D2*
X3039365D1*
X3121522D2*
X3293369D1*
X3375506D2*
X3547373D1*
X3629510D2*
X3801357D1*
X3883514D2*
X4342998D1*
X1057010Y1251000D2*
X4342998D1*
X1057010Y1241333D2*
X4342998D1*
X1057010Y1231667D2*
X4342998D1*
X1057010Y1222000D2*
X4342998D1*
X1057010Y1212333D2*
X4342998D1*
X1057010Y1202667D2*
X4342998D1*
X1057010Y1193000D2*
X4342998D1*
X1057010Y1183333D2*
X4342998D1*
X1057010Y1173667D2*
X4342998D1*
X1057010Y1164000D2*
X4342998D1*
X1057010Y1154333D2*
X4342998D1*
X1057010Y1144667D2*
X4342998D1*
X1057010Y1135000D2*
X4342998D1*
X1057010Y1125333D2*
X4342998D1*
X1057010Y1115667D2*
X4342998D1*
X1057010Y1106000D2*
X4342998D1*
X1057010Y1096333D2*
X4342998D1*
X1057010Y1086667D2*
X4342998D1*
X1057010Y1077000D2*
X4342998D1*
X1057010Y1067333D2*
X4342998D1*
X1057010Y1057667D2*
X4342998D1*
X3028933Y3193998D2*
Y3091146D1*
X3301876Y3091150D1*
X3306851Y3090955D1*
X3311794Y3090370D1*
X3316677Y3089398D1*
X3321468Y3088047D1*
X3326139Y3086324D1*
X3330660Y3084240D1*
X3335003Y3081808D1*
X3339142Y3079042D1*
X3343052Y3075960D1*
X3350243Y3069045D1*
X3886457Y2532834D1*
X3889836Y2529178D1*
X3892918Y2525269D1*
X3895684Y2521130D1*
X3898117Y2516786D1*
X3900201Y2512265D1*
X3901924Y2507595D1*
X3903275Y2502804D1*
X3904246Y2497921D1*
X3904831Y2492978D1*
X3905027Y2483003D1*
Y2262163D1*
X3955027Y2262150D1*
Y2015350D1*
X3905828D1*
X3905840Y1754164D1*
X3955840Y1754150D1*
Y1507350D1*
X3729040D1*
Y1754150D1*
X3779021D1*
X3779040Y2015340D1*
X3728227Y2015350D1*
Y2262150D1*
X3778207D1*
X3778227Y2461738D1*
X3275621Y2964345D1*
X3028927Y2964350D1*
X3028934Y2691857D1*
X3124455Y2596327D1*
X3127834Y2592671D1*
X3130916Y2588762D1*
X3133682Y2584622D1*
X3136114Y2580279D1*
X3138198Y2575758D1*
X3139921Y2571087D1*
X3141272Y2566296D1*
X3142243Y2561414D1*
X3142828Y2556470D1*
X3143024Y2546497D1*
Y2242766D1*
X3149762Y2237860D1*
X3157337Y2231337D1*
X3164308Y2224173D1*
X3170622Y2216422D1*
X3176228Y2208145D1*
X3181084Y2199406D1*
X3185151Y2190274D1*
X3188398Y2180820D1*
X3190799Y2171116D1*
X3192337Y2161238D1*
X3192999Y2151263D1*
X3193008Y2128750D1*
X3192586Y2118763D1*
X3191268Y2108854D1*
X3189082Y2099099D1*
X3186045Y2089574D1*
X3182181Y2080354D1*
X3177521Y2071511D1*
X3172099Y2063112D1*
X3165959Y2055223D1*
X3159148Y2047905D1*
X3151719Y2041216D1*
X3143841Y2035287D1*
X3143840Y1734789D1*
X3150575Y1729860D1*
X3158150Y1723337D1*
X3165122Y1716173D1*
X3171435Y1708422D1*
X3177041Y1700145D1*
X3181897Y1691406D1*
X3185964Y1682274D1*
X3189211Y1672820D1*
X3191613Y1663116D1*
X3193150Y1653238D1*
X3193812Y1643263D1*
X3193821Y1620750D1*
X3193399Y1610763D1*
X3192081Y1600854D1*
X3189895Y1591099D1*
X3186858Y1581574D1*
X3182995Y1572354D1*
X3178334Y1563511D1*
X3172912Y1555112D1*
X3166772Y1547223D1*
X3159961Y1539905D1*
X3152533Y1533216D1*
X3144543Y1527207D1*
X3136056Y1521925D1*
X3127136Y1517411D1*
X3117854Y1513700D1*
X3108281Y1510821D1*
X3098491Y1508796D1*
X3088561Y1507641D1*
X3078568Y1507365D1*
X3068590Y1507971D1*
X3058704Y1509453D1*
X3048986Y1511799D1*
X3039513Y1514993D1*
X3030358Y1519008D1*
X3021593Y1523814D1*
X3013284Y1529373D1*
X3005498Y1535643D1*
X2998294Y1542574D1*
X2991728Y1550112D1*
X2985852Y1558199D1*
X2980710Y1566773D1*
X2976344Y1575766D1*
X2972787Y1585108D1*
X2970066Y1594727D1*
X2968203Y1604549D1*
X2967213Y1614497D1*
X2967040Y1625750D1*
X2967102Y1644493D1*
X2967872Y1654460D1*
X2969517Y1664320D1*
X2972023Y1673998D1*
X2975373Y1683417D1*
X2979539Y1692504D1*
X2984489Y1701189D1*
X2990184Y1709405D1*
X2996581Y1717087D1*
X3003630Y1724175D1*
X3011276Y1730616D1*
X3017041Y1734739D1*
X3017040Y2034168D1*
X3008509Y2040422D1*
X3001006Y2047029D1*
X2994114Y2054270D1*
X2987887Y2062091D1*
X2982373Y2070429D1*
X2977615Y2079221D1*
X2973649Y2088398D1*
X2970507Y2097888D1*
X2968213Y2107618D1*
X2966785Y2117512D1*
X2966234Y2127493D1*
X2966288Y2152493D1*
X2967058Y2162460D1*
X2968703Y2172320D1*
X2971210Y2181998D1*
X2974559Y2191417D1*
X2978725Y2200504D1*
X2983675Y2209189D1*
X2989371Y2217405D1*
X2995768Y2225087D1*
X3002817Y2232175D1*
X3010462Y2238616D1*
X3016227Y2242739D1*
X3016223Y2459863D1*
X2889031Y2459850D1*
X2889027Y2242766D1*
X2895762Y2237860D1*
X2903337Y2231337D1*
X2910308Y2224173D1*
X2916622Y2216422D1*
X2922228Y2208145D1*
X2927084Y2199406D1*
X2931151Y2190274D1*
X2934398Y2180820D1*
X2936799Y2171116D1*
X2938337Y2161238D1*
X2938999Y2151263D1*
X2939008Y2128750D1*
X2938586Y2118763D1*
X2937268Y2108854D1*
X2935082Y2099099D1*
X2932045Y2089574D1*
X2928181Y2080354D1*
X2923521Y2071511D1*
X2918099Y2063112D1*
X2911959Y2055223D1*
X2905148Y2047905D1*
X2897719Y2041216D1*
X2889841Y2035287D1*
X2889840Y1734789D1*
X2896575Y1729860D1*
X2904150Y1723337D1*
X2911122Y1716173D1*
X2917435Y1708422D1*
X2923041Y1700145D1*
X2927897Y1691406D1*
X2931964Y1682274D1*
X2935211Y1672820D1*
X2937613Y1663116D1*
X2939150Y1653238D1*
X2939812Y1643263D1*
X2939821Y1620750D1*
X2939399Y1610763D1*
X2938081Y1600854D1*
X2935895Y1591099D1*
X2932858Y1581574D1*
X2928995Y1572354D1*
X2924334Y1563511D1*
X2918912Y1555112D1*
X2912772Y1547223D1*
X2905961Y1539905D1*
X2898533Y1533216D1*
X2890543Y1527207D1*
X2882056Y1521925D1*
X2873136Y1517411D1*
X2863854Y1513700D1*
X2854281Y1510821D1*
X2844491Y1508796D1*
X2834561Y1507641D1*
X2824568Y1507365D1*
X2814590Y1507971D1*
X2804704Y1509453D1*
X2794986Y1511799D1*
X2785513Y1514993D1*
X2776358Y1519008D1*
X2767593Y1523814D1*
X2759284Y1529373D1*
X2751498Y1535643D1*
X2744294Y1542574D1*
X2737728Y1550112D1*
X2731852Y1558199D1*
X2726710Y1566773D1*
X2722344Y1575766D1*
X2718787Y1585108D1*
X2716066Y1594727D1*
X2714203Y1604549D1*
X2713213Y1614497D1*
X2713040Y1625750D1*
X2713102Y1644493D1*
X2713872Y1654460D1*
X2715517Y1664320D1*
X2718023Y1673998D1*
X2721373Y1683417D1*
X2725539Y1692504D1*
X2730489Y1701189D1*
X2736184Y1709405D1*
X2742581Y1717087D1*
X2749630Y1724175D1*
X2757276Y1730616D1*
X2763041Y1734739D1*
X2763040Y2034168D1*
X2754509Y2040422D1*
X2747006Y2047029D1*
X2740114Y2054270D1*
X2733887Y2062091D1*
X2728373Y2070429D1*
X2723615Y2079221D1*
X2719649Y2088398D1*
X2716507Y2097888D1*
X2714213Y2107618D1*
X2712785Y2117512D1*
X2712234Y2127493D1*
X2712288Y2152493D1*
X2713058Y2162460D1*
X2714703Y2172320D1*
X2717210Y2181998D1*
X2720559Y2191417D1*
X2724725Y2200504D1*
X2729675Y2209189D1*
X2735371Y2217405D1*
X2741768Y2225087D1*
X2748817Y2232175D1*
X2756462Y2238616D1*
X2762227Y2242739D1*
X2762153Y2367865D1*
X2761182Y2362983D1*
X2759830Y2358192D1*
X2758107Y2353521D1*
X2756023Y2349000D1*
X2753591Y2344657D1*
X2750825Y2340518D1*
X2747743Y2336608D1*
X2740829Y2329417D1*
X2664081Y2252669D1*
X2660425Y2249290D1*
X2656516Y2246208D1*
X2652377Y2243442D1*
X2648033Y2241010D1*
X2643494Y2238919D1*
X2641762Y2237860D1*
X2649337Y2231337D1*
X2656308Y2224173D1*
X2662622Y2216422D1*
X2668228Y2208145D1*
X2673084Y2199406D1*
X2677151Y2190274D1*
X2680398Y2180820D1*
X2682799Y2171116D1*
X2684337Y2161238D1*
X2684999Y2151263D1*
X2685008Y2128750D1*
X2684586Y2118763D1*
X2683268Y2108854D1*
X2681082Y2099099D1*
X2678045Y2089574D1*
X2674181Y2080354D1*
X2669521Y2071511D1*
X2664099Y2063112D1*
X2657959Y2055223D1*
X2651148Y2047905D1*
X2643719Y2041216D1*
X2635730Y2035207D1*
X2627243Y2029925D1*
X2618323Y2025411D1*
X2609041Y2021700D1*
X2599467Y2018821D1*
X2589678Y2016796D1*
X2579748Y2015641D1*
X2569755Y2015365D1*
X2559777Y2015971D1*
X2549890Y2017453D1*
X2540173Y2019799D1*
X2530700Y2022993D1*
X2521545Y2027008D1*
X2512779Y2031814D1*
X2504471Y2037373D1*
X2496684Y2043643D1*
X2489480Y2050574D1*
X2482915Y2058112D1*
X2477038Y2066199D1*
X2471897Y2074773D1*
X2467531Y2083766D1*
X2463974Y2093108D1*
X2461253Y2102727D1*
X2459390Y2112549D1*
X2458399Y2122497D1*
X2458227Y2133750D1*
X2458288Y2152493D1*
X2459058Y2162460D1*
X2460703Y2172320D1*
X2463210Y2181998D1*
X2466559Y2191417D1*
X2470725Y2200504D1*
X2475675Y2209189D1*
X2481371Y2217405D1*
X2487768Y2225087D1*
X2494817Y2232175D1*
X2497000Y2234099D1*
X2486770Y2234100D1*
X2427894Y2175233D1*
X2429677Y2166194D1*
X2430778Y2156258D1*
X2431027Y2148750D1*
X2430916Y2123752D1*
X2430036Y2113794D1*
X2428282Y2103952D1*
X2425668Y2094303D1*
X2422215Y2084922D1*
X2417948Y2075881D1*
X2412902Y2067251D1*
X2407116Y2059099D1*
X2400634Y2051489D1*
X2393507Y2044479D1*
X2385791Y2038123D1*
X2381841Y2035287D1*
X2381840Y1734756D1*
X2388575Y1729860D1*
X2396150Y1723337D1*
X2403122Y1716173D1*
X2409435Y1708422D1*
X2415041Y1700145D1*
X2419897Y1691406D1*
X2423964Y1682274D1*
X2427211Y1672820D1*
X2429613Y1663116D1*
X2431150Y1653238D1*
X2431812Y1643263D1*
X2431821Y1620749D1*
X2431399Y1610763D1*
X2430081Y1600854D1*
X2427895Y1591099D1*
X2424858Y1581574D1*
X2420995Y1572354D1*
X2416334Y1563511D1*
X2410912Y1555112D1*
X2404772Y1547223D1*
X2397961Y1539905D1*
X2390533Y1533216D1*
X2382543Y1527207D1*
X2374056Y1521925D1*
X2365136Y1517411D1*
X2355854Y1513700D1*
X2346281Y1510821D1*
X2336491Y1508796D1*
X2326561Y1507641D1*
X2316568Y1507365D1*
X2306590Y1507971D1*
X2296704Y1509453D1*
X2286986Y1511799D1*
X2277513Y1514993D1*
X2268358Y1519008D1*
X2259593Y1523814D1*
X2251284Y1529373D1*
X2243498Y1535643D1*
X2236294Y1542574D1*
X2229728Y1550112D1*
X2223852Y1558199D1*
X2218710Y1566773D1*
X2214344Y1575766D1*
X2210787Y1585108D1*
X2208066Y1594727D1*
X2206203Y1604549D1*
X2205213Y1614497D1*
X2205041Y1625749D1*
X2205102Y1644493D1*
X2205872Y1654460D1*
X2207517Y1664320D1*
X2210023Y1673998D1*
X2213373Y1683417D1*
X2217539Y1692504D1*
X2222489Y1701189D1*
X2228184Y1709405D1*
X2234581Y1717087D1*
X2241630Y1724175D1*
X2249276Y1730616D1*
X2255041Y1734739D1*
X2255040Y2034168D1*
X2246509Y2040422D1*
X2239006Y2047029D1*
X2232114Y2054270D1*
X2225887Y2062091D1*
X2220373Y2070429D1*
X2215615Y2079221D1*
X2211649Y2088398D1*
X2208507Y2097888D1*
X2206213Y2107618D1*
X2204785Y2117512D1*
X2204234Y2127493D1*
X2204288Y2152493D1*
X2205058Y2162460D1*
X2206703Y2172320D1*
X2209210Y2181998D1*
X2212559Y2191417D1*
X2216725Y2200504D1*
X2221675Y2209189D1*
X2227371Y2217405D1*
X2233768Y2225087D1*
X2240817Y2232175D1*
X2248462Y2238616D1*
X2256646Y2244358D1*
X2265303Y2249357D1*
X2274366Y2253574D1*
X2283766Y2256977D1*
X2293429Y2259538D1*
X2303280Y2261239D1*
X2313243Y2262065D1*
X2323239Y2262011D1*
X2333192Y2261077D1*
X2334253Y2260906D1*
X2415669Y2342331D1*
X2419325Y2345710D1*
X2423234Y2348792D1*
X2427373Y2351558D1*
X2431717Y2353990D1*
X2436238Y2356074D1*
X2440908Y2357797D1*
X2445700Y2359148D1*
X2450582Y2360120D1*
X2455526Y2360705D1*
X2465500Y2360900D1*
X2510246D1*
X2504557Y2366914D1*
X2501409Y2370797D1*
X2498485Y2374853D1*
X2495795Y2379067D1*
X2493348Y2383426D1*
X2491151Y2387917D1*
X2489212Y2392525D1*
X2487536Y2397235D1*
X2486130Y2402032D1*
X2484996Y2406902D1*
X2484140Y2411827D1*
X2483563Y2416793D1*
X2483268Y2421784D1*
X2483256Y2426783D1*
X2483527Y2431775D1*
X2484079Y2436744D1*
X2484911Y2441673D1*
X2486020Y2446548D1*
X2487404Y2451352D1*
X2489056Y2456070D1*
X2490621Y2459840D1*
X2370133Y2459850D1*
Y2577838D1*
X2127030Y2334741D1*
X2127027Y2242777D1*
X2133762Y2237860D1*
X2141337Y2231337D1*
X2148308Y2224173D1*
X2154622Y2216422D1*
X2160228Y2208145D1*
X2165084Y2199406D1*
X2169151Y2190274D1*
X2172398Y2180820D1*
X2174799Y2171116D1*
X2176337Y2161238D1*
X2176999Y2151263D1*
X2177008Y2128749D1*
X2176586Y2118763D1*
X2175268Y2108854D1*
X2173082Y2099099D1*
X2170045Y2089574D1*
X2166181Y2080354D1*
X2161521Y2071511D1*
X2156099Y2063112D1*
X2149959Y2055223D1*
X2143148Y2047905D1*
X2135719Y2041216D1*
X2127841Y2035287D1*
X2127840Y1734789D1*
X2134575Y1729860D1*
X2142150Y1723337D1*
X2149122Y1716173D1*
X2155435Y1708422D1*
X2161041Y1700145D1*
X2165897Y1691406D1*
X2169964Y1682274D1*
X2173211Y1672820D1*
X2175613Y1663116D1*
X2177150Y1653238D1*
X2177812Y1643263D1*
X2177821Y1620749D1*
X2177399Y1610763D1*
X2176081Y1600854D1*
X2173895Y1591099D1*
X2170858Y1581574D1*
X2166995Y1572354D1*
X2162334Y1563511D1*
X2156912Y1555112D1*
X2150772Y1547223D1*
X2143961Y1539905D1*
X2136533Y1533216D1*
X2128543Y1527207D1*
X2120056Y1521925D1*
X2111136Y1517411D1*
X2101854Y1513700D1*
X2092281Y1510821D1*
X2082491Y1508796D1*
X2072561Y1507641D1*
X2062568Y1507365D1*
X2052590Y1507971D1*
X2042704Y1509453D1*
X2032986Y1511799D1*
X2023513Y1514993D1*
X2014358Y1519008D1*
X2005593Y1523814D1*
X1997284Y1529373D1*
X1989498Y1535643D1*
X1982294Y1542574D1*
X1975728Y1550112D1*
X1969852Y1558199D1*
X1964710Y1566773D1*
X1960344Y1575766D1*
X1956787Y1585108D1*
X1954066Y1594727D1*
X1952203Y1604549D1*
X1951213Y1614497D1*
X1951041Y1625749D1*
X1951102Y1644493D1*
X1951872Y1654460D1*
X1953517Y1664320D1*
X1956023Y1673998D1*
X1959373Y1683417D1*
X1963539Y1692504D1*
X1968489Y1701189D1*
X1974184Y1709405D1*
X1980581Y1717087D1*
X1987630Y1724175D1*
X1995276Y1730616D1*
X2001041Y1734739D1*
X2001040Y2034168D1*
X1992509Y2040422D1*
X1985006Y2047029D1*
X1978114Y2054270D1*
X1971887Y2062091D1*
X1966373Y2070429D1*
X1961615Y2079221D1*
X1957649Y2088398D1*
X1954507Y2097888D1*
X1952213Y2107618D1*
X1950785Y2117512D1*
X1950234Y2127493D1*
X1950288Y2152493D1*
X1951058Y2162460D1*
X1952703Y2172320D1*
X1955210Y2181998D1*
X1958559Y2191417D1*
X1962725Y2200504D1*
X1967675Y2209189D1*
X1973371Y2217405D1*
X1979768Y2225087D1*
X1986817Y2232175D1*
X1994462Y2238616D1*
X2000227Y2242739D1*
X2000226Y2361000D1*
X2000422Y2365974D1*
X2001007Y2370918D1*
X2001978Y2375801D1*
X2003329Y2380592D1*
X2005052Y2385262D1*
X2007137Y2389783D1*
X2009569Y2394127D1*
X2012335Y2398266D1*
X2015417Y2402175D1*
X2022331Y2409366D1*
X2312546Y2699581D1*
X2316201Y2702960D1*
X2320111Y2706042D1*
X2324250Y2708808D1*
X2328593Y2711240D1*
X2333114Y2713324D1*
X2337785Y2715047D1*
X2342576Y2716399D1*
X2347459Y2717370D1*
X2352402Y2717955D1*
X2362377Y2718150D1*
X2370131D1*
X2370133Y2849650D1*
X2878145D1*
X2878133Y3194002D1*
X1502443Y3194000D1*
X1422929Y3187050D1*
X1348211Y3167034D1*
X1278100Y3134345D1*
X1214730Y3089975D1*
X1160030Y3035275D1*
X1115660Y2971906D1*
X1082970Y2901795D1*
X1062953Y2827072D1*
X1056003Y2747555D1*
X1056000Y1055995D1*
X4343988Y1056000D1*
X4344000Y2747560D1*
X4337051Y2827067D1*
X4317035Y2901788D1*
X4284346Y2971899D1*
X4239977Y3035268D1*
X4185278Y3089968D1*
X4121910Y3134338D1*
X4051799Y3167028D1*
X3977077Y3187046D1*
X3897561Y3193996D1*
X3028931Y3193998D1*
X3475061Y1640763D2*
X3475377Y1649485D1*
X3476585Y1659408D1*
X3478663Y1669187D1*
X3481594Y1678744D1*
X3485356Y1688006D1*
X3489918Y1696901D1*
X3495246Y1705360D1*
X3501298Y1713316D1*
X3508028Y1720709D1*
X3515382Y1727480D1*
X3523304Y1733577D1*
X3525041Y1734739D1*
X3525040Y2034168D1*
X3516509Y2040422D1*
X3509006Y2047029D1*
X3502114Y2054270D1*
X3495887Y2062091D1*
X3490373Y2070429D1*
X3485615Y2079221D1*
X3481649Y2088398D1*
X3478507Y2097888D1*
X3476213Y2107618D1*
X3474785Y2117512D1*
X3474234Y2127493D1*
X3474288Y2152493D1*
X3475058Y2162460D1*
X3476703Y2172320D1*
X3479210Y2181998D1*
X3482559Y2191417D1*
X3486725Y2200504D1*
X3491675Y2209189D1*
X3497371Y2217405D1*
X3503768Y2225087D1*
X3510817Y2232175D1*
X3518462Y2238616D1*
X3526646Y2244358D1*
X3535303Y2249357D1*
X3544366Y2253574D1*
X3553766Y2256977D1*
X3563429Y2259538D1*
X3573280Y2261239D1*
X3583243Y2262065D1*
X3593239Y2262011D1*
X3603192Y2261077D1*
X3613024Y2259269D1*
X3622659Y2256603D1*
X3632022Y2253099D1*
X3641039Y2248783D1*
X3649641Y2243691D1*
X3657762Y2237860D1*
X3665337Y2231337D1*
X3672308Y2224173D1*
X3678622Y2216422D1*
X3684228Y2208145D1*
X3689084Y2199406D1*
X3693151Y2190274D1*
X3696398Y2180820D1*
X3698799Y2171116D1*
X3700337Y2161238D1*
X3700999Y2151263D1*
X3701007Y2128750D1*
X3700586Y2118763D1*
X3699268Y2108854D1*
X3697082Y2099099D1*
X3694045Y2089574D1*
X3690181Y2080354D1*
X3685521Y2071511D1*
X3680099Y2063112D1*
X3673959Y2055223D1*
X3667148Y2047905D1*
X3659719Y2041216D1*
X3651841Y2035287D1*
X3651840Y1734789D1*
X3658575Y1729860D1*
X3666150Y1723337D1*
X3673122Y1716173D1*
X3679435Y1708422D1*
X3685041Y1700145D1*
X3689897Y1691406D1*
X3693964Y1682274D1*
X3697211Y1672820D1*
X3699613Y1663116D1*
X3701150Y1653238D1*
X3701812Y1643263D1*
X3701821Y1620750D1*
X3701399Y1610763D1*
X3700081Y1600854D1*
X3697895Y1591099D1*
X3694858Y1581574D1*
X3690995Y1572354D1*
X3686334Y1563511D1*
X3680912Y1555112D1*
X3674772Y1547223D1*
X3667961Y1539905D1*
X3660533Y1533216D1*
X3652543Y1527207D1*
X3644056Y1521925D1*
X3635136Y1517411D1*
X3625854Y1513700D1*
X3616281Y1510821D1*
X3606491Y1508796D1*
X3596561Y1507641D1*
X3586568Y1507365D1*
X3576590Y1507971D1*
X3566704Y1509453D1*
X3556986Y1511799D1*
X3547513Y1514993D1*
X3538358Y1519008D1*
X3529593Y1523814D1*
X3521284Y1529373D1*
X3513498Y1535643D1*
X3506294Y1542574D1*
X3499728Y1550112D1*
X3493852Y1558199D1*
X3488710Y1566773D1*
X3484344Y1575766D1*
X3480787Y1585108D1*
X3478066Y1594727D1*
X3476203Y1604549D1*
X3475213Y1614497D1*
X3475040Y1625750D1*
Y1640496D1*
X3221061Y1640763D2*
X3221377Y1649485D1*
X3222585Y1659408D1*
X3224663Y1669187D1*
X3227594Y1678744D1*
X3231356Y1688006D1*
X3235918Y1696901D1*
X3241246Y1705360D1*
X3247298Y1713316D1*
X3254028Y1720709D1*
X3261382Y1727480D1*
X3269304Y1733577D1*
X3271041Y1734739D1*
X3271040Y2034168D1*
X3262509Y2040422D1*
X3255006Y2047029D1*
X3248114Y2054270D1*
X3241887Y2062091D1*
X3236373Y2070429D1*
X3231615Y2079221D1*
X3227649Y2088398D1*
X3224507Y2097888D1*
X3222213Y2107618D1*
X3220785Y2117512D1*
X3220234Y2127493D1*
X3220288Y2152493D1*
X3221058Y2162460D1*
X3222703Y2172320D1*
X3225210Y2181998D1*
X3228559Y2191417D1*
X3232725Y2200504D1*
X3237675Y2209189D1*
X3243371Y2217405D1*
X3249768Y2225087D1*
X3256817Y2232175D1*
X3264462Y2238616D1*
X3272646Y2244358D1*
X3281303Y2249357D1*
X3290366Y2253574D1*
X3299766Y2256977D1*
X3309429Y2259538D1*
X3319280Y2261239D1*
X3329243Y2262065D1*
X3339239Y2262011D1*
X3349192Y2261077D1*
X3359024Y2259269D1*
X3368659Y2256603D1*
X3378022Y2253099D1*
X3387039Y2248783D1*
X3395641Y2243691D1*
X3403762Y2237860D1*
X3411337Y2231337D1*
X3418308Y2224173D1*
X3424622Y2216422D1*
X3430228Y2208145D1*
X3435084Y2199406D1*
X3439151Y2190274D1*
X3442398Y2180820D1*
X3444799Y2171116D1*
X3446337Y2161238D1*
X3446999Y2151263D1*
X3447007Y2128750D1*
X3446586Y2118763D1*
X3445268Y2108854D1*
X3443082Y2099099D1*
X3440045Y2089574D1*
X3436181Y2080354D1*
X3431521Y2071511D1*
X3426099Y2063112D1*
X3419959Y2055223D1*
X3413148Y2047905D1*
X3405719Y2041216D1*
X3397841Y2035287D1*
X3397840Y1734789D1*
X3404575Y1729860D1*
X3412150Y1723337D1*
X3419122Y1716173D1*
X3425435Y1708422D1*
X3431041Y1700145D1*
X3435897Y1691406D1*
X3439964Y1682274D1*
X3443211Y1672820D1*
X3445613Y1663116D1*
X3447150Y1653238D1*
X3447812Y1643263D1*
X3447821Y1620750D1*
X3447399Y1610763D1*
X3446081Y1600854D1*
X3443895Y1591099D1*
X3440858Y1581574D1*
X3436995Y1572354D1*
X3432334Y1563511D1*
X3426912Y1555112D1*
X3420772Y1547223D1*
X3413961Y1539905D1*
X3406533Y1533216D1*
X3398543Y1527207D1*
X3390056Y1521925D1*
X3381136Y1517411D1*
X3371854Y1513700D1*
X3362281Y1510821D1*
X3352491Y1508796D1*
X3342561Y1507641D1*
X3332568Y1507365D1*
X3322590Y1507971D1*
X3312704Y1509453D1*
X3302986Y1511799D1*
X3293513Y1514993D1*
X3284358Y1519008D1*
X3275593Y1523814D1*
X3267284Y1529373D1*
X3259498Y1535643D1*
X3252294Y1542574D1*
X3245728Y1550112D1*
X3239852Y1558199D1*
X3234710Y1566773D1*
X3230344Y1575766D1*
X3226787Y1585108D1*
X3224066Y1594727D1*
X3222203Y1604549D1*
X3221213Y1614497D1*
X3221040Y1625750D1*
Y1640457D1*
X2459061Y1640763D2*
X2459377Y1649485D1*
X2460585Y1659408D1*
X2462663Y1669187D1*
X2465594Y1678744D1*
X2469356Y1688006D1*
X2473918Y1696901D1*
X2479246Y1705360D1*
X2485298Y1713316D1*
X2492028Y1720709D1*
X2499382Y1727480D1*
X2507304Y1733577D1*
X2515732Y1738953D1*
X2524601Y1743565D1*
X2533842Y1747379D1*
X2543383Y1750364D1*
X2553149Y1752497D1*
X2563066Y1753762D1*
X2573055Y1754148D1*
X2583040Y1753654D1*
X2592942Y1752281D1*
X2602685Y1750042D1*
X2612192Y1746954D1*
X2621391Y1743040D1*
X2630210Y1738332D1*
X2638579Y1732865D1*
X2646435Y1726682D1*
X2653715Y1719832D1*
X2660364Y1712367D1*
X2666330Y1704345D1*
X2671565Y1695829D1*
X2676031Y1686885D1*
X2679692Y1677583D1*
X2682519Y1667994D1*
X2684490Y1658194D1*
X2685591Y1648258D1*
X2685840Y1640750D1*
X2685730Y1615752D1*
X2684849Y1605794D1*
X2683095Y1595952D1*
X2680482Y1586303D1*
X2677028Y1576922D1*
X2672762Y1567881D1*
X2667716Y1559251D1*
X2661929Y1551099D1*
X2655448Y1543489D1*
X2648321Y1536479D1*
X2640604Y1530123D1*
X2632358Y1524472D1*
X2623646Y1519569D1*
X2614536Y1515453D1*
X2605099Y1512155D1*
X2595408Y1509700D1*
X2585539Y1508109D1*
X2575568Y1507393D1*
X2565573Y1507558D1*
X2555630Y1508603D1*
X2545819Y1510519D1*
X2536215Y1513292D1*
X2526892Y1516900D1*
X2517923Y1521315D1*
X2509377Y1526502D1*
X2501322Y1532422D1*
X2493819Y1539029D1*
X2486928Y1546270D1*
X2480701Y1554091D1*
X2475186Y1562429D1*
X2470428Y1571221D1*
X2466462Y1580398D1*
X2463320Y1589888D1*
X2461026Y1599618D1*
X2459598Y1609512D1*
X2459047Y1619493D1*
X2459040Y1640417D1*
X1697061Y1640763D2*
X1697377Y1649485D1*
X1698585Y1659408D1*
X1700663Y1669187D1*
X1703594Y1678744D1*
X1707356Y1688006D1*
X1711918Y1696901D1*
X1717246Y1705360D1*
X1723298Y1713316D1*
X1730028Y1720709D1*
X1737382Y1727480D1*
X1745304Y1733577D1*
X1753732Y1738953D1*
X1762601Y1743565D1*
X1771842Y1747379D1*
X1781383Y1750364D1*
X1791149Y1752497D1*
X1801066Y1753762D1*
X1811055Y1754148D1*
X1821040Y1753654D1*
X1830942Y1752281D1*
X1840685Y1750042D1*
X1850192Y1746954D1*
X1859391Y1743040D1*
X1868210Y1738332D1*
X1876579Y1732865D1*
X1884435Y1726682D1*
X1891715Y1719832D1*
X1898364Y1712367D1*
X1904330Y1704345D1*
X1909565Y1695829D1*
X1914031Y1686885D1*
X1917692Y1677583D1*
X1920519Y1667994D1*
X1922490Y1658194D1*
X1923591Y1648258D1*
X1923841Y1640749D1*
X1923730Y1615752D1*
X1922849Y1605794D1*
X1921095Y1595952D1*
X1918482Y1586303D1*
X1915028Y1576922D1*
X1910762Y1567881D1*
X1905716Y1559251D1*
X1899929Y1551099D1*
X1893448Y1543489D1*
X1886321Y1536479D1*
X1878604Y1530123D1*
X1870358Y1524472D1*
X1861646Y1519569D1*
X1852536Y1515453D1*
X1843099Y1512155D1*
X1833408Y1509700D1*
X1823539Y1508109D1*
X1813568Y1507393D1*
X1803573Y1507558D1*
X1793630Y1508603D1*
X1783819Y1510519D1*
X1774215Y1513292D1*
X1764892Y1516900D1*
X1755923Y1521315D1*
X1747377Y1526502D1*
X1739322Y1532422D1*
X1731819Y1539029D1*
X1724928Y1546270D1*
X1718701Y1554091D1*
X1713186Y1562429D1*
X1708428Y1571221D1*
X1704462Y1580398D1*
X1701320Y1589888D1*
X1699026Y1599618D1*
X1697598Y1609512D1*
X1697047Y1619493D1*
X1697041Y1640378D1*
X1443061Y1640763D2*
X1443377Y1649485D1*
X1444585Y1659408D1*
X1446663Y1669187D1*
X1449594Y1678744D1*
X1453356Y1688006D1*
X1457918Y1696901D1*
X1463246Y1705360D1*
X1469298Y1713316D1*
X1476028Y1720709D1*
X1483382Y1727480D1*
X1491304Y1733577D1*
X1499732Y1738953D1*
X1508601Y1743565D1*
X1517842Y1747379D1*
X1527383Y1750364D1*
X1537149Y1752497D1*
X1547066Y1753762D1*
X1557055Y1754148D1*
X1567040Y1753654D1*
X1576942Y1752281D1*
X1586685Y1750042D1*
X1596192Y1746954D1*
X1605391Y1743040D1*
X1614210Y1738332D1*
X1622579Y1732865D1*
X1630435Y1726682D1*
X1637715Y1719832D1*
X1644364Y1712367D1*
X1650330Y1704345D1*
X1655565Y1695829D1*
X1660031Y1686885D1*
X1663692Y1677583D1*
X1666519Y1667994D1*
X1668490Y1658194D1*
X1669591Y1648258D1*
X1669841Y1640749D1*
X1669730Y1615752D1*
X1668849Y1605794D1*
X1667095Y1595952D1*
X1664482Y1586303D1*
X1661028Y1576922D1*
X1656762Y1567881D1*
X1651716Y1559251D1*
X1645929Y1551099D1*
X1639448Y1543489D1*
X1632321Y1536479D1*
X1624604Y1530123D1*
X1616358Y1524472D1*
X1607646Y1519569D1*
X1598536Y1515453D1*
X1589099Y1512155D1*
X1579408Y1509700D1*
X1569539Y1508109D1*
X1559568Y1507393D1*
X1549573Y1507558D1*
X1539630Y1508603D1*
X1529819Y1510519D1*
X1520215Y1513292D1*
X1510892Y1516900D1*
X1501923Y1521315D1*
X1493377Y1526502D1*
X1485322Y1532422D1*
X1477819Y1539029D1*
X1470928Y1546270D1*
X1464701Y1554091D1*
X1459186Y1562429D1*
X1454428Y1571221D1*
X1450462Y1580398D1*
X1447320Y1589888D1*
X1445026Y1599618D1*
X1443598Y1609512D1*
X1443047Y1619493D1*
X1443041Y1640378D1*
Y1386435D2*
X1443240Y1393489D1*
X1443997Y1401452D1*
X1445313Y1409341D1*
X1447182Y1417118D1*
X1449594Y1424744D1*
X1452538Y1432181D1*
X1455999Y1439392D1*
X1459959Y1446341D1*
X1464400Y1452993D1*
X1469298Y1459316D1*
X1474630Y1465278D1*
X1480369Y1470850D1*
X1486486Y1476002D1*
X1492951Y1480711D1*
X1499732Y1484953D1*
X1506796Y1488706D1*
X1514106Y1491952D1*
X1521627Y1494674D1*
X1529320Y1496859D1*
X1537149Y1498497D1*
X1545074Y1499579D1*
X1553056Y1500099D1*
X1561054Y1500056D1*
X1569029Y1499449D1*
X1576942Y1498281D1*
X1584752Y1496559D1*
X1592422Y1494290D1*
X1599913Y1491486D1*
X1607188Y1488161D1*
X1614210Y1484332D1*
X1620944Y1480017D1*
X1627358Y1475238D1*
X1633419Y1470019D1*
X1639097Y1464386D1*
X1644364Y1458367D1*
X1649193Y1451991D1*
X1653561Y1445291D1*
X1657446Y1438299D1*
X1660829Y1431051D1*
X1663692Y1423583D1*
X1666021Y1415931D1*
X1667805Y1408134D1*
X1669036Y1400231D1*
X1669706Y1392261D1*
X1669841Y1382749D1*
X1669730Y1361752D1*
X1669096Y1353778D1*
X1667901Y1345870D1*
X1666152Y1338065D1*
X1663857Y1330403D1*
X1661028Y1322922D1*
X1657678Y1315659D1*
X1653825Y1308650D1*
X1649488Y1301930D1*
X1644687Y1295532D1*
X1639448Y1289489D1*
X1633795Y1283830D1*
X1627758Y1278584D1*
X1621366Y1273776D1*
X1614651Y1269431D1*
X1607646Y1265569D1*
X1600387Y1262212D1*
X1592909Y1259374D1*
X1585249Y1257070D1*
X1577446Y1255313D1*
X1569539Y1254109D1*
X1561567Y1253466D1*
X1553569Y1253386D1*
X1545585Y1253871D1*
X1537655Y1254917D1*
X1529819Y1256519D1*
X1522115Y1258670D1*
X1514582Y1261358D1*
X1507258Y1264571D1*
X1500177Y1268291D1*
X1493377Y1272502D1*
X1486891Y1277182D1*
X1480750Y1282307D1*
X1474986Y1287852D1*
X1469627Y1293790D1*
X1464701Y1300091D1*
X1460230Y1306723D1*
X1456238Y1313654D1*
X1452745Y1320849D1*
X1449767Y1328273D1*
X1447320Y1335888D1*
X1445416Y1343656D1*
X1444065Y1351539D1*
X1443272Y1359498D1*
X1443041Y1366747D1*
Y1386355D1*
X1697041Y1386427D2*
X1697240Y1393489D1*
X1697997Y1401452D1*
X1699313Y1409341D1*
X1701182Y1417118D1*
X1703594Y1424744D1*
X1706538Y1432181D1*
X1709999Y1439392D1*
X1713959Y1446341D1*
X1718400Y1452993D1*
X1723298Y1459316D1*
X1728630Y1465278D1*
X1734369Y1470850D1*
X1740486Y1476002D1*
X1746951Y1480711D1*
X1753732Y1484953D1*
X1760796Y1488706D1*
X1768106Y1491952D1*
X1775627Y1494674D1*
X1783320Y1496859D1*
X1791149Y1498497D1*
X1799074Y1499579D1*
X1807056Y1500099D1*
X1815054Y1500056D1*
X1823029Y1499449D1*
X1830942Y1498281D1*
X1838752Y1496559D1*
X1846422Y1494290D1*
X1853913Y1491486D1*
X1861188Y1488161D1*
X1868210Y1484332D1*
X1874944Y1480017D1*
X1881358Y1475238D1*
X1887419Y1470019D1*
X1893097Y1464386D1*
X1898364Y1458367D1*
X1903193Y1451991D1*
X1907561Y1445291D1*
X1911446Y1438299D1*
X1914829Y1431051D1*
X1917692Y1423583D1*
X1920021Y1415931D1*
X1921805Y1408134D1*
X1923036Y1400231D1*
X1923706Y1392261D1*
X1923841Y1382749D1*
X1923730Y1361752D1*
X1923096Y1353778D1*
X1921901Y1345870D1*
X1920152Y1338065D1*
X1917857Y1330403D1*
X1915028Y1322922D1*
X1911678Y1315659D1*
X1907825Y1308650D1*
X1903488Y1301930D1*
X1898687Y1295532D1*
X1893448Y1289489D1*
X1887795Y1283830D1*
X1881758Y1278584D1*
X1875366Y1273776D1*
X1868651Y1269431D1*
X1861646Y1265569D1*
X1854387Y1262212D1*
X1846909Y1259374D1*
X1839249Y1257070D1*
X1831446Y1255313D1*
X1823539Y1254109D1*
X1815567Y1253466D1*
X1807569Y1253386D1*
X1799585Y1253871D1*
X1791655Y1254917D1*
X1783819Y1256519D1*
X1776115Y1258670D1*
X1768582Y1261358D1*
X1761258Y1264571D1*
X1754177Y1268291D1*
X1747377Y1272502D1*
X1740891Y1277182D1*
X1734750Y1282307D1*
X1728986Y1287852D1*
X1723627Y1293790D1*
X1718701Y1300091D1*
X1714230Y1306723D1*
X1710238Y1313654D1*
X1706745Y1320849D1*
X1703767Y1328273D1*
X1701320Y1335888D1*
X1699416Y1343656D1*
X1698065Y1351539D1*
X1697272Y1359498D1*
X1697041Y1366747D1*
Y1386347D1*
X1951041Y1386419D2*
X1951240Y1393489D1*
X1951997Y1401452D1*
X1953313Y1409341D1*
X1955182Y1417118D1*
X1957594Y1424744D1*
X1960538Y1432181D1*
X1963999Y1439392D1*
X1967959Y1446341D1*
X1972400Y1452993D1*
X1977298Y1459316D1*
X1982630Y1465278D1*
X1988369Y1470850D1*
X1994486Y1476002D1*
X2000951Y1480711D1*
X2007732Y1484953D1*
X2014796Y1488706D1*
X2022106Y1491952D1*
X2029627Y1494674D1*
X2037320Y1496859D1*
X2045149Y1498497D1*
X2053074Y1499579D1*
X2061056Y1500099D1*
X2069054Y1500056D1*
X2077029Y1499449D1*
X2084942Y1498281D1*
X2092752Y1496559D1*
X2100422Y1494290D1*
X2107913Y1491486D1*
X2115188Y1488161D1*
X2122210Y1484332D1*
X2128944Y1480017D1*
X2135358Y1475238D1*
X2141419Y1470019D1*
X2147097Y1464386D1*
X2152364Y1458367D1*
X2157193Y1451991D1*
X2161561Y1445291D1*
X2165446Y1438299D1*
X2168829Y1431051D1*
X2171692Y1423583D1*
X2174021Y1415931D1*
X2175805Y1408134D1*
X2177036Y1400231D1*
X2177706Y1392261D1*
X2177841Y1382749D1*
X2177730Y1361752D1*
X2177096Y1353778D1*
X2175901Y1345870D1*
X2174152Y1338065D1*
X2171857Y1330403D1*
X2169028Y1322922D1*
X2165678Y1315659D1*
X2161825Y1308650D1*
X2157488Y1301930D1*
X2152687Y1295532D1*
X2147448Y1289489D1*
X2141795Y1283830D1*
X2135758Y1278584D1*
X2129366Y1273776D1*
X2122651Y1269431D1*
X2115646Y1265569D1*
X2108387Y1262212D1*
X2100909Y1259374D1*
X2093249Y1257070D1*
X2085446Y1255313D1*
X2077539Y1254109D1*
X2069567Y1253466D1*
X2061569Y1253386D1*
X2053585Y1253871D1*
X2045655Y1254917D1*
X2037819Y1256519D1*
X2030115Y1258670D1*
X2022582Y1261358D1*
X2015258Y1264571D1*
X2008177Y1268291D1*
X2001377Y1272502D1*
X1994891Y1277182D1*
X1988750Y1282307D1*
X1982986Y1287852D1*
X1977627Y1293790D1*
X1972701Y1300091D1*
X1968230Y1306723D1*
X1964238Y1313654D1*
X1960745Y1320849D1*
X1957767Y1328273D1*
X1955320Y1335888D1*
X1953416Y1343656D1*
X1952065Y1351539D1*
X1951272Y1359498D1*
X1951041Y1366747D1*
Y1386339D1*
X2205041Y1386419D2*
X2205240Y1393489D1*
X2205997Y1401452D1*
X2207313Y1409341D1*
X2209182Y1417118D1*
X2211594Y1424744D1*
X2214538Y1432181D1*
X2217999Y1439392D1*
X2221959Y1446341D1*
X2226400Y1452993D1*
X2231298Y1459316D1*
X2236630Y1465278D1*
X2242369Y1470850D1*
X2248486Y1476002D1*
X2254951Y1480711D1*
X2261732Y1484953D1*
X2268796Y1488706D1*
X2276106Y1491952D1*
X2283627Y1494674D1*
X2291320Y1496859D1*
X2299149Y1498497D1*
X2307074Y1499579D1*
X2315056Y1500099D1*
X2323054Y1500056D1*
X2331029Y1499449D1*
X2338942Y1498281D1*
X2346752Y1496559D1*
X2354422Y1494290D1*
X2361913Y1491486D1*
X2369188Y1488161D1*
X2376210Y1484332D1*
X2382944Y1480017D1*
X2389358Y1475238D1*
X2395419Y1470019D1*
X2401097Y1464386D1*
X2406364Y1458367D1*
X2411193Y1451991D1*
X2415561Y1445291D1*
X2419446Y1438299D1*
X2422829Y1431051D1*
X2425692Y1423583D1*
X2428021Y1415931D1*
X2429805Y1408134D1*
X2431036Y1400231D1*
X2431706Y1392261D1*
X2431841Y1383749D1*
X2431730Y1361752D1*
X2431096Y1353778D1*
X2429901Y1345870D1*
X2428152Y1338065D1*
X2425857Y1330403D1*
X2423028Y1322922D1*
X2419678Y1315659D1*
X2415825Y1308650D1*
X2411488Y1301930D1*
X2406687Y1295532D1*
X2401448Y1289489D1*
X2395795Y1283830D1*
X2389758Y1278584D1*
X2383366Y1273776D1*
X2376651Y1269431D1*
X2369646Y1265569D1*
X2362387Y1262212D1*
X2354909Y1259374D1*
X2347249Y1257070D1*
X2339446Y1255313D1*
X2331539Y1254109D1*
X2323567Y1253466D1*
X2315569Y1253386D1*
X2307585Y1253871D1*
X2299655Y1254917D1*
X2291819Y1256519D1*
X2284115Y1258670D1*
X2276582Y1261358D1*
X2269258Y1264571D1*
X2262177Y1268291D1*
X2255377Y1272502D1*
X2248891Y1277182D1*
X2242750Y1282307D1*
X2236986Y1287852D1*
X2231627Y1293790D1*
X2226701Y1300091D1*
X2222230Y1306723D1*
X2218238Y1313654D1*
X2214745Y1320849D1*
X2211767Y1328273D1*
X2209320Y1335888D1*
X2207416Y1343656D1*
X2206065Y1351539D1*
X2205272Y1359498D1*
X2205041Y1366747D1*
Y1386323D1*
X2459041Y1386747D2*
X2459304Y1394487D1*
X2460131Y1402443D1*
X2461517Y1410320D1*
X2463454Y1418080D1*
X2465933Y1425685D1*
X2468943Y1433095D1*
X2472467Y1440275D1*
X2476489Y1447189D1*
X2480988Y1453802D1*
X2485941Y1460082D1*
X2491326Y1465997D1*
X2497113Y1471517D1*
X2503276Y1476616D1*
X2509782Y1481268D1*
X2516601Y1485449D1*
X2523697Y1489140D1*
X2531035Y1492321D1*
X2538580Y1494977D1*
X2546293Y1497094D1*
X2554136Y1498663D1*
X2562070Y1499675D1*
X2570055Y1500125D1*
X2578053Y1500011D1*
X2586022Y1499334D1*
X2593924Y1498096D1*
X2601720Y1496305D1*
X2609369Y1493968D1*
X2616835Y1491099D1*
X2624080Y1487710D1*
X2631068Y1483819D1*
X2637764Y1479445D1*
X2644136Y1474610D1*
X2650150Y1469337D1*
X2655778Y1463654D1*
X2660992Y1457589D1*
X2665765Y1451170D1*
X2670074Y1444432D1*
X2673897Y1437406D1*
X2677215Y1430129D1*
X2680012Y1422636D1*
X2682274Y1414964D1*
X2683990Y1407152D1*
X2685150Y1399238D1*
X2685750Y1391262D1*
X2685840Y1378750D1*
X2685730Y1361752D1*
X2685096Y1353778D1*
X2683901Y1345870D1*
X2682152Y1338065D1*
X2679857Y1330403D1*
X2677028Y1322922D1*
X2673678Y1315659D1*
X2669825Y1308650D1*
X2665488Y1301930D1*
X2660687Y1295532D1*
X2655448Y1289489D1*
X2649795Y1283830D1*
X2643758Y1278584D1*
X2637366Y1273776D1*
X2630651Y1269431D1*
X2623646Y1265569D1*
X2616387Y1262212D1*
X2608909Y1259374D1*
X2601249Y1257070D1*
X2593446Y1255313D1*
X2585539Y1254109D1*
X2577567Y1253466D1*
X2569569Y1253386D1*
X2561585Y1253871D1*
X2553655Y1254917D1*
X2545819Y1256519D1*
X2538115Y1258670D1*
X2530582Y1261358D1*
X2523258Y1264571D1*
X2516177Y1268291D1*
X2509377Y1272502D1*
X2502891Y1277182D1*
X2496750Y1282307D1*
X2490986Y1287852D1*
X2485627Y1293790D1*
X2480701Y1300091D1*
X2476230Y1306723D1*
X2472238Y1313654D1*
X2468745Y1320849D1*
X2465767Y1328273D1*
X2463320Y1335888D1*
X2461416Y1343656D1*
X2460065Y1351539D1*
X2459272Y1359498D1*
X2459040Y1366750D1*
X2459044Y1386750D1*
X2713041Y1386747D2*
X2713304Y1394487D1*
X2714131Y1402443D1*
X2715517Y1410320D1*
X2717454Y1418080D1*
X2719933Y1425685D1*
X2722943Y1433095D1*
X2726467Y1440275D1*
X2730489Y1447189D1*
X2734988Y1453802D1*
X2739941Y1460082D1*
X2745326Y1465997D1*
X2751113Y1471517D1*
X2757276Y1476616D1*
X2763782Y1481268D1*
X2770601Y1485449D1*
X2777697Y1489140D1*
X2785035Y1492321D1*
X2792580Y1494977D1*
X2800293Y1497094D1*
X2808136Y1498663D1*
X2816070Y1499675D1*
X2824055Y1500125D1*
X2832053Y1500011D1*
X2840022Y1499334D1*
X2847924Y1498096D1*
X2855720Y1496305D1*
X2863369Y1493968D1*
X2870835Y1491099D1*
X2878080Y1487710D1*
X2885068Y1483819D1*
X2891764Y1479445D1*
X2898136Y1474610D1*
X2904150Y1469337D1*
X2909778Y1463654D1*
X2914992Y1457589D1*
X2919765Y1451170D1*
X2924074Y1444432D1*
X2927897Y1437406D1*
X2931215Y1430129D1*
X2934012Y1422636D1*
X2936274Y1414964D1*
X2937990Y1407152D1*
X2939150Y1399238D1*
X2939750Y1391262D1*
X2939840Y1378750D1*
X2939730Y1361752D1*
X2939096Y1353778D1*
X2937901Y1345870D1*
X2936152Y1338065D1*
X2933857Y1330403D1*
X2931028Y1322922D1*
X2927678Y1315659D1*
X2923825Y1308650D1*
X2919488Y1301930D1*
X2914687Y1295532D1*
X2909448Y1289489D1*
X2903795Y1283830D1*
X2897758Y1278584D1*
X2891366Y1273776D1*
X2884651Y1269431D1*
X2877646Y1265569D1*
X2870387Y1262212D1*
X2862909Y1259374D1*
X2855249Y1257070D1*
X2847446Y1255313D1*
X2839539Y1254109D1*
X2831567Y1253466D1*
X2823569Y1253386D1*
X2815585Y1253871D1*
X2807655Y1254917D1*
X2799819Y1256519D1*
X2792115Y1258670D1*
X2784582Y1261358D1*
X2777258Y1264571D1*
X2770177Y1268291D1*
X2763377Y1272502D1*
X2756891Y1277182D1*
X2750750Y1282307D1*
X2744986Y1287852D1*
X2739627Y1293790D1*
X2734701Y1300091D1*
X2730230Y1306723D1*
X2726238Y1313654D1*
X2722745Y1320849D1*
X2719767Y1328273D1*
X2717320Y1335888D1*
X2715416Y1343656D1*
X2714065Y1351539D1*
X2713272Y1359498D1*
X2713041Y1366747D1*
X2713040Y1386660D1*
X2967041Y1386747D2*
X2967304Y1394487D1*
X2968131Y1402443D1*
X2969517Y1410320D1*
X2971454Y1418080D1*
X2973933Y1425685D1*
X2976943Y1433095D1*
X2980467Y1440275D1*
X2984489Y1447189D1*
X2988988Y1453802D1*
X2993941Y1460082D1*
X2999326Y1465997D1*
X3005113Y1471517D1*
X3011276Y1476616D1*
X3017782Y1481268D1*
X3024601Y1485449D1*
X3031697Y1489140D1*
X3039035Y1492321D1*
X3046580Y1494977D1*
X3054293Y1497094D1*
X3062136Y1498663D1*
X3070070Y1499675D1*
X3078055Y1500125D1*
X3086053Y1500011D1*
X3094022Y1499334D1*
X3101924Y1498096D1*
X3109720Y1496305D1*
X3117369Y1493968D1*
X3124835Y1491099D1*
X3132080Y1487710D1*
X3139068Y1483819D1*
X3145764Y1479445D1*
X3152136Y1474610D1*
X3158150Y1469337D1*
X3163778Y1463654D1*
X3168992Y1457589D1*
X3173765Y1451170D1*
X3178074Y1444432D1*
X3181897Y1437406D1*
X3185215Y1430129D1*
X3188012Y1422636D1*
X3190274Y1414964D1*
X3191990Y1407152D1*
X3193150Y1399238D1*
X3193750Y1391262D1*
X3193840Y1378750D1*
X3193730Y1361752D1*
X3193096Y1353778D1*
X3191901Y1345870D1*
X3190152Y1338065D1*
X3187857Y1330403D1*
X3185028Y1322922D1*
X3181678Y1315659D1*
X3177825Y1308650D1*
X3173488Y1301930D1*
X3168687Y1295532D1*
X3163448Y1289489D1*
X3157795Y1283830D1*
X3151758Y1278584D1*
X3145366Y1273776D1*
X3138651Y1269431D1*
X3131646Y1265569D1*
X3124387Y1262212D1*
X3116909Y1259374D1*
X3109249Y1257070D1*
X3101446Y1255313D1*
X3093539Y1254109D1*
X3085567Y1253466D1*
X3077569Y1253386D1*
X3069585Y1253871D1*
X3061655Y1254917D1*
X3053819Y1256519D1*
X3046115Y1258670D1*
X3038582Y1261358D1*
X3031258Y1264571D1*
X3024177Y1268291D1*
X3017377Y1272502D1*
X3010891Y1277182D1*
X3004750Y1282307D1*
X2998986Y1287852D1*
X2993627Y1293790D1*
X2988701Y1300091D1*
X2984230Y1306723D1*
X2980238Y1313654D1*
X2976745Y1320849D1*
X2973767Y1328273D1*
X2971320Y1335888D1*
X2969416Y1343656D1*
X2968065Y1351539D1*
X2967272Y1359498D1*
X2967041Y1366747D1*
X2967040Y1386621D1*
X3221041Y1386747D2*
X3221304Y1394487D1*
X3222131Y1402443D1*
X3223517Y1410320D1*
X3225454Y1418080D1*
X3227933Y1425685D1*
X3230943Y1433095D1*
X3234467Y1440275D1*
X3238489Y1447189D1*
X3242988Y1453802D1*
X3247941Y1460082D1*
X3253326Y1465997D1*
X3259113Y1471517D1*
X3265276Y1476616D1*
X3271782Y1481268D1*
X3278601Y1485449D1*
X3285697Y1489140D1*
X3293035Y1492321D1*
X3300580Y1494977D1*
X3308293Y1497094D1*
X3316136Y1498663D1*
X3324070Y1499675D1*
X3332055Y1500125D1*
X3340053Y1500011D1*
X3348022Y1499334D1*
X3355924Y1498096D1*
X3363720Y1496305D1*
X3371369Y1493968D1*
X3378835Y1491099D1*
X3386080Y1487710D1*
X3393068Y1483819D1*
X3399764Y1479445D1*
X3406136Y1474610D1*
X3412150Y1469337D1*
X3417778Y1463654D1*
X3422992Y1457589D1*
X3427765Y1451170D1*
X3432074Y1444432D1*
X3435897Y1437406D1*
X3439215Y1430129D1*
X3442012Y1422636D1*
X3444274Y1414964D1*
X3445990Y1407152D1*
X3447150Y1399238D1*
X3447750Y1391262D1*
X3447840Y1378750D1*
X3447730Y1361752D1*
X3447096Y1353778D1*
X3445901Y1345870D1*
X3444152Y1338065D1*
X3441857Y1330403D1*
X3439028Y1322922D1*
X3435678Y1315659D1*
X3431825Y1308650D1*
X3427488Y1301930D1*
X3422687Y1295532D1*
X3417448Y1289489D1*
X3411795Y1283830D1*
X3405758Y1278584D1*
X3399366Y1273776D1*
X3392651Y1269431D1*
X3385646Y1265569D1*
X3378387Y1262212D1*
X3370909Y1259374D1*
X3363249Y1257070D1*
X3355446Y1255313D1*
X3347539Y1254109D1*
X3339567Y1253466D1*
X3331569Y1253386D1*
X3323585Y1253871D1*
X3315655Y1254917D1*
X3307819Y1256519D1*
X3300115Y1258670D1*
X3292582Y1261358D1*
X3285258Y1264571D1*
X3278177Y1268291D1*
X3271377Y1272502D1*
X3264891Y1277182D1*
X3258750Y1282307D1*
X3252986Y1287852D1*
X3247627Y1293790D1*
X3242701Y1300091D1*
X3238230Y1306723D1*
X3234238Y1313654D1*
X3230745Y1320849D1*
X3227767Y1328273D1*
X3225320Y1335888D1*
X3223416Y1343656D1*
X3222065Y1351539D1*
X3221272Y1359498D1*
X3221041Y1366747D1*
X3221040Y1386590D1*
X3475041Y1386747D2*
X3475304Y1394487D1*
X3476131Y1402443D1*
X3477517Y1410320D1*
X3479454Y1418080D1*
X3481933Y1425685D1*
X3484943Y1433095D1*
X3488467Y1440275D1*
X3492489Y1447189D1*
X3496988Y1453802D1*
X3501941Y1460082D1*
X3507326Y1465997D1*
X3513113Y1471517D1*
X3519276Y1476616D1*
X3525782Y1481268D1*
X3532601Y1485449D1*
X3539697Y1489140D1*
X3547035Y1492321D1*
X3554580Y1494977D1*
X3562293Y1497094D1*
X3570136Y1498663D1*
X3578070Y1499675D1*
X3586055Y1500125D1*
X3594053Y1500011D1*
X3602022Y1499334D1*
X3609924Y1498096D1*
X3617720Y1496305D1*
X3625369Y1493968D1*
X3632835Y1491099D1*
X3640080Y1487710D1*
X3647068Y1483819D1*
X3653764Y1479445D1*
X3660136Y1474610D1*
X3666150Y1469337D1*
X3671778Y1463654D1*
X3676992Y1457589D1*
X3681765Y1451170D1*
X3686074Y1444432D1*
X3689897Y1437406D1*
X3693215Y1430129D1*
X3696012Y1422636D1*
X3698274Y1414964D1*
X3699990Y1407152D1*
X3701150Y1399238D1*
X3701750Y1391262D1*
X3701840Y1378750D1*
X3701730Y1361752D1*
X3701096Y1353778D1*
X3699901Y1345870D1*
X3698152Y1338065D1*
X3695857Y1330403D1*
X3693028Y1322922D1*
X3689678Y1315659D1*
X3685825Y1308650D1*
X3681488Y1301930D1*
X3676687Y1295532D1*
X3671448Y1289489D1*
X3665795Y1283830D1*
X3659758Y1278584D1*
X3653366Y1273776D1*
X3646651Y1269431D1*
X3639646Y1265569D1*
X3632387Y1262212D1*
X3624909Y1259374D1*
X3617249Y1257070D1*
X3609446Y1255313D1*
X3601539Y1254109D1*
X3593567Y1253466D1*
X3585569Y1253386D1*
X3577585Y1253871D1*
X3569655Y1254917D1*
X3561819Y1256519D1*
X3554115Y1258670D1*
X3546582Y1261358D1*
X3539258Y1264571D1*
X3532177Y1268291D1*
X3525377Y1272502D1*
X3518891Y1277182D1*
X3512750Y1282307D1*
X3506986Y1287852D1*
X3501627Y1293790D1*
X3496701Y1300091D1*
X3492230Y1306723D1*
X3488238Y1313654D1*
X3484745Y1320849D1*
X3481767Y1328273D1*
X3479320Y1335888D1*
X3477416Y1343656D1*
X3476065Y1351539D1*
X3475272Y1359498D1*
X3475041Y1366747D1*
X3475040Y1386558D1*
X3729061Y1386763D2*
X3729377Y1395485D1*
X3730585Y1405408D1*
X3732663Y1415187D1*
X3735594Y1424744D1*
X3739356Y1434006D1*
X3743918Y1442901D1*
X3749246Y1451360D1*
X3755298Y1459316D1*
X3762028Y1466709D1*
X3769382Y1473480D1*
X3777304Y1479577D1*
X3785732Y1484953D1*
X3794601Y1489565D1*
X3803842Y1493379D1*
X3813383Y1496364D1*
X3823149Y1498497D1*
X3833066Y1499762D1*
X3843055Y1500148D1*
X3853040Y1499654D1*
X3862942Y1498281D1*
X3872685Y1496042D1*
X3882192Y1492954D1*
X3891391Y1489040D1*
X3900210Y1484332D1*
X3908579Y1478865D1*
X3916435Y1472682D1*
X3923715Y1465832D1*
X3930364Y1458367D1*
X3936330Y1450345D1*
X3941565Y1441829D1*
X3946031Y1432885D1*
X3949692Y1423583D1*
X3952519Y1413994D1*
X3954490Y1404194D1*
X3955591Y1394258D1*
X3955840Y1386750D1*
X3955730Y1361752D1*
X3954849Y1351794D1*
X3953095Y1341952D1*
X3950482Y1332303D1*
X3947028Y1322922D1*
X3942762Y1313881D1*
X3937716Y1305251D1*
X3931929Y1297099D1*
X3925448Y1289489D1*
X3918321Y1282479D1*
X3910604Y1276123D1*
X3902358Y1270472D1*
X3893646Y1265569D1*
X3884536Y1261453D1*
X3875099Y1258155D1*
X3865408Y1255700D1*
X3855539Y1254109D1*
X3845568Y1253393D1*
X3835573Y1253558D1*
X3825630Y1254603D1*
X3815819Y1256519D1*
X3806215Y1259292D1*
X3796892Y1262900D1*
X3787923Y1267315D1*
X3779377Y1272502D1*
X3771322Y1278422D1*
X3763819Y1285029D1*
X3756928Y1292270D1*
X3750701Y1300091D1*
X3745186Y1308429D1*
X3740428Y1317221D1*
X3736462Y1326398D1*
X3733320Y1335888D1*
X3731026Y1345618D1*
X3729598Y1355512D1*
X3729047Y1365493D1*
X3729040Y1386535D1*
X1696227Y2148450D2*
X1696427Y2155489D1*
X1697184Y2163452D1*
X1698500Y2171341D1*
X1700369Y2179118D1*
X1702781Y2186744D1*
X1705725Y2194181D1*
X1709186Y2201392D1*
X1713146Y2208341D1*
X1717587Y2214993D1*
X1722485Y2221316D1*
X1727817Y2227278D1*
X1733555Y2232850D1*
X1739673Y2238002D1*
X1746138Y2242711D1*
X1752919Y2246953D1*
X1759982Y2250706D1*
X1767292Y2253952D1*
X1774813Y2256674D1*
X1782507Y2258859D1*
X1790336Y2260497D1*
X1798261Y2261579D1*
X1806242Y2262099D1*
X1814240Y2262056D1*
X1822216Y2261449D1*
X1830128Y2260281D1*
X1837939Y2258559D1*
X1845609Y2256290D1*
X1853100Y2253486D1*
X1860374Y2250161D1*
X1867396Y2246332D1*
X1874131Y2242017D1*
X1880545Y2237238D1*
X1886606Y2232019D1*
X1892284Y2226386D1*
X1897551Y2220367D1*
X1902380Y2213991D1*
X1906748Y2207291D1*
X1910633Y2200299D1*
X1914015Y2193051D1*
X1916878Y2185583D1*
X1919208Y2177931D1*
X1920992Y2170134D1*
X1922222Y2162231D1*
X1922893Y2154261D1*
X1923027Y2144749D1*
X1922916Y2123752D1*
X1922282Y2115778D1*
X1921088Y2107870D1*
X1919339Y2100065D1*
X1917044Y2092403D1*
X1914215Y2084922D1*
X1910865Y2077659D1*
X1907012Y2070650D1*
X1902674Y2063930D1*
X1897874Y2057532D1*
X1892634Y2051489D1*
X1886982Y2045830D1*
X1880944Y2040584D1*
X1874552Y2035776D1*
X1867837Y2031431D1*
X1860833Y2027569D1*
X1853573Y2024212D1*
X1846095Y2021374D1*
X1838436Y2019070D1*
X1830633Y2017313D1*
X1822726Y2016109D1*
X1814753Y2015466D1*
X1806755Y2015386D1*
X1798772Y2015871D1*
X1790842Y2016917D1*
X1783006Y2018519D1*
X1775302Y2020670D1*
X1767769Y2023358D1*
X1760444Y2026571D1*
X1753364Y2030291D1*
X1746564Y2034502D1*
X1740077Y2039182D1*
X1733937Y2044307D1*
X1728173Y2049852D1*
X1722814Y2055790D1*
X1717887Y2062091D1*
X1713417Y2068723D1*
X1709425Y2075654D1*
X1705932Y2082849D1*
X1702954Y2090273D1*
X1700507Y2097888D1*
X1698603Y2105656D1*
X1697251Y2113539D1*
X1696459Y2121498D1*
X1696228Y2128747D1*
X1696227Y2148394D1*
X1442227Y2148443D2*
X1442427Y2155489D1*
X1443184Y2163452D1*
X1444500Y2171341D1*
X1446369Y2179118D1*
X1448781Y2186744D1*
X1451725Y2194181D1*
X1455186Y2201392D1*
X1459146Y2208341D1*
X1463587Y2214993D1*
X1468485Y2221316D1*
X1473817Y2227278D1*
X1479555Y2232850D1*
X1485673Y2238002D1*
X1492138Y2242711D1*
X1498919Y2246953D1*
X1505982Y2250706D1*
X1513292Y2253952D1*
X1520813Y2256674D1*
X1528507Y2258859D1*
X1536336Y2260497D1*
X1544261Y2261579D1*
X1552242Y2262099D1*
X1560240Y2262056D1*
X1568216Y2261449D1*
X1576128Y2260281D1*
X1583939Y2258559D1*
X1591609Y2256290D1*
X1599100Y2253486D1*
X1606374Y2250161D1*
X1613396Y2246332D1*
X1620131Y2242017D1*
X1626545Y2237238D1*
X1632606Y2232019D1*
X1638284Y2226386D1*
X1643551Y2220367D1*
X1648380Y2213991D1*
X1652748Y2207291D1*
X1656633Y2200299D1*
X1660015Y2193051D1*
X1662878Y2185583D1*
X1665208Y2177931D1*
X1666992Y2170134D1*
X1668222Y2162231D1*
X1668893Y2154261D1*
X1669027Y2144749D1*
X1668916Y2123752D1*
X1668282Y2115778D1*
X1667088Y2107870D1*
X1665339Y2100065D1*
X1663044Y2092403D1*
X1660215Y2084922D1*
X1656865Y2077659D1*
X1653012Y2070650D1*
X1648674Y2063930D1*
X1643874Y2057532D1*
X1638634Y2051489D1*
X1632982Y2045830D1*
X1626944Y2040584D1*
X1620552Y2035776D1*
X1613837Y2031431D1*
X1606833Y2027569D1*
X1599573Y2024212D1*
X1592095Y2021374D1*
X1584436Y2019070D1*
X1576633Y2017313D1*
X1568726Y2016109D1*
X1560753Y2015466D1*
X1552755Y2015386D1*
X1544772Y2015871D1*
X1536842Y2016917D1*
X1529006Y2018519D1*
X1521302Y2020670D1*
X1513769Y2023358D1*
X1506444Y2026571D1*
X1499364Y2030291D1*
X1492564Y2034502D1*
X1486077Y2039182D1*
X1479937Y2044307D1*
X1474173Y2049852D1*
X1468814Y2055790D1*
X1463887Y2062091D1*
X1459417Y2068723D1*
X1455425Y2075654D1*
X1451932Y2082849D1*
X1448954Y2090273D1*
X1446507Y2097888D1*
X1444603Y2105656D1*
X1443251Y2113539D1*
X1442459Y2121498D1*
X1442228Y2128747D1*
X1442227Y2148378D1*
X1556440Y1500130D2*
D15*
Y1253370D1*
X1443060Y1376750D2*
X1669821D1*
X1810440Y1500130D2*
Y1253370D1*
X1697060Y1376750D2*
X1923821D1*
X2064440Y1500130D2*
Y1253370D1*
X1951060Y1376750D2*
X2177821D1*
X2318440Y1500130D2*
Y1253370D1*
X2205060Y1376750D2*
X2431821D1*
X2572440Y1500130D2*
Y1253370D1*
X2459060Y1376750D2*
X2685820D1*
X2826440Y1500130D2*
Y1253370D1*
X2713060Y1376750D2*
X2939821D1*
X3080440Y1500130D2*
Y1253370D1*
X2967060Y1376750D2*
X3193821D1*
X3334440Y1500130D2*
Y1253370D1*
X3221060Y1376750D2*
X3447821D1*
X3588440Y1500130D2*
Y1253370D1*
X3475060Y1376750D2*
X3701821D1*
X1809627Y2262130D2*
Y2015370D1*
X1696246Y2138750D2*
X1923008D1*
X1555627Y2262130D2*
Y2015370D1*
X1442246Y2138750D2*
X1669008D1*
D17*
X2953533Y3027750D3*
X2826533D3*
X2699533D3*
X2572533D3*
X2445533D3*
Y2654750D3*
X2572533D3*
X2699533D3*
X2826533D3*
X2953533D3*
D18*
X3842440Y1630750D3*
D34*
X3588440D3*
X3334440D3*
X3080440D3*
X2826440D3*
X2572440D3*
X2318440D3*
X2064440D3*
X1810440D3*
X1556440D3*
Y1376750D3*
X1810440D3*
X2064440D3*
X2318440D3*
X2572440D3*
X2826440D3*
X3080440D3*
X3334440D3*
X3588440D3*
X3842440D3*
D18*
X3841627Y2138750D3*
D19*
X3587627D3*
X3333627D3*
X3079627D3*
X2825627D3*
X2571627D3*
X2317627D3*
X2063627D3*
X1809627D3*
X1555627D3*
M02*
